사업장명,사업장 주소,위도,경도,사고일자,사고 시간,사고 발생 장소,사고 원인,사고 물질,사고 종류,사업장 업종명,사망자,부상자,환경 피해,CAS NUMBER,성상,색상,냄새,pH,녹는점/어는점(℃),초기 끓는점과 끓는점 범위(℃),인화점(℃),증발속도,인화 또는 폭발 범위의 상한(%),인화 또는 폭발 범위의 하한(%),"증기압(atm,25℃)",증기압 기준온도(℃),용해도(g/ml),용해도 기준온도(℃),증기밀도(g/㎤),비중(g/㎤),비중 기준온도(℃),n-옥탄올/물분배계수(Log Kow),자연발화온도(℃),분해온도(℃),점도(cP),점도 기준온도(℃),분자량,인화성,피해야할 조건,피해야 할 물질,자극성 가스,부식성 가스,독성 가스,부식성 흄,독성 흄,연소시 유독가스,사고 물질의 양(kg),"공정도(여부 O,X)",원료 투입 공정,반응 공정,가열 공정,분리 공정,연소 공정,전처리 공정,정제 공정,전이 공정,전환 공정,농축 공정,중화공정,세척 공정,살균 공정,숙성 공정,증류 공정,냉각 공정,승온 공정,교반 공정,열분해 공정,특정 화학 물질 제거 공정,탈수 공정,건조 공정,여과 공정,결정화 공정,수세 공정,분쇄 공정,코팅 공정,포장 공정,종업원수,취급 물질,생산제품 종류,사고건수,자체 교육 훈련 현황
,인천광역시,37.4562557,126.7052,201912,12:05,반응기 ,작업자 부주의 ,"디옥살란1,3",폭발,,0,5,,646-06-0,액체,,,,-95,78,2,,,,0.103,20,100,25,2.6,-0.37,,,,,,,74.08,고인화성,"열,스파크,화염,고열",,유 ,유 ,유 ,무 ,무 ,무 ,200,O,Y,Y,N,N,N,N,N,N,N,N,N,Y,N,N,N,N,N,N,N,N,N,Y,Y,Y,N,N,N,N,,,,,
(주)빙그레 도농공장,경기도 ,37.6151986,127.149507,20140213,13:00,저장 설비 ,시설 관리 미흡 ,암모니아 ,누출,아이스크림 및 기타 식용빙과류 제조업,1,3,,7664-41-7,기체 ,무색 ,자극적인 냄새 ,염기성 ,-78,-33.35,132,,15,33.6,9.99,26,54,20,0.59,0.7,-33,0.23,651,382.8,0.255,,17.03,극인화성 ,"열,스파크,화염,고열","물,강산화제,산,할로겐화물,중금속,분리그룹 ",무 ,무 ,무 ,무 ,무 ,유 ,1361,O,Y,Y,N,N,N,N,N,N,N,N,N,Y,Y,Y,N,Y,N,Y,N,N,N,N,N,N,N,N,N,Y,150," 암모니아,가성소다, 질산, 과산화수소 ",아이스크림 및 기타 식용빙과류 제품 ,1,O
한일화학공사,인천광역시,37.5949488,126.6570989,20140819,14:20,저장 설비 ,시설 결함,비닐 아세테이트 ,유출,화학물 물류 및 판매,0,7," 피해사업장 인근 농작물 ( 약13ha ) 가로수 ( 200여 그루 ) 고사, 농수로 내 물고기폐사",108-05-4,액체 ,무색 ,달콤한 냄새,,-93.2,72.7,-8,8.9,13.4,2.6,0.11,20,2,20,3,0.9,,0.93,385,,0.43,20,86.09,고인화성 ,"열,스파크,화염,고열",,유 ,유 ,유 ,무 ,무 ,무 ,"100,000",X,,,,,,,,,,,,,,,,,,,,,,,,,,,,,12,아세트산 에틸,화학물,1,
(주)램테크놀로지 금산공장,충청남도,36.1968293,127.5208379,20140824,9:10,저장 설비 ,작업자 부주의 ,불화수소,누출 ,석탄화학계 화합물 및 기타 기초 유기 화학물질 제조업,0,0,"잡목산림 약 66㎡ 및 식물잎 약 9,500㎡ 고사",7664-39-3,기체 ,무색 ,자극적인 냄새 ,산성 ,-83.53,19.51,,,,,1.2,25,,,0.95,1,,,,,0.256,0,20.01,불연성,열,"물,
분리 그룹",무 ,무 ,무 ,무 ,무 ,유 ,5.5,X,,,,,,,,,,,,,,,,,,,,,,,,,,,,,52,"불산, 무수불산, 염산",석탄화학계 화합물 및 기타 기초 유기 화학물질,3,
(주)노루페인트,경기도 ,37.4059626,126.892644,20140902,17:23,생산 설비 ,작업자 부주의 ,암모니아 ,누출 ,"건축용 도료를 비롯해 가전금속용, PCM용, 중방식용, 자동차 보수용, 페인트 제조",0,60,,7664-41-7,기체 ,무색 ,자극적인 냄새 ,염기성 ,-78,-33.35,132,,15,33.6,9.99,26,54,20,0.59,0.7,-33,0.23,651,382.8,0.255,,17.03,불연성,"열,스파크,화염,고열","물,강산화제,산,할로겐화물,중금속,분리그룹 ",무 ,무 ,무 ,무 ,무 ,유 ,,O,Y,Y,N,N,N,N,N,N,N,N,N,N,N,N,N,Y,N,Y,N,N,N,N,N,N,N,N,N,Y,450,에폭시 수지,"가전금속용, PCM용, 중방식용, 자동차 보수용, 페인트",2,O
,충청남도,36.5184,126.8,20140703,13:25,도로 ,운송차량사고 ,수산화나트륨 ,유출 ,,0,1,,1310-73-2,고체 ,흰색 ,무향 ,극염기성 ,318,1390,,,,,,,109,20,,2.13,20,-3.88,,,4,350,40,불연성,열,"가연성 물질,환원성 물질,
금속",무 ,무 ,무 ,유 ,유 ,유 ,908,X,,,,,,,,,,,,,,,,,,,,,,,,,,,,,,,,,
,전라남도 ,37.3975462,126.9152713,20140913,0:13,도로 ,운송차량사고 ,염산(35%),누출,,1,6,인근 농수로로 유출,10361-95-2,고체 ,노란색 ,,,,,,,,,,,262,20,,2.15,,,,60,,,232.29,불연성,"열,스파크,화염,고열","가연성물질,연료 ",유,유,유,무,무,무,6804,X,,,,,,,,,,,,,,,,,,,,,,,,,,,,,,,,,
,경상북도,37.045276,129.061108,20141105,16:35,도로,운송차량사고 ,황산 ,유출 ,,0,0,,7664-93-9,액체 ,무색 ,무향 ,강산성 ,10.4~10.94,337,,,,,0.0059,20,,,1.81,1.8,,-2.2,,340,21,,98.079,불연성,"열,스파크,화염 ","가연성물질,금속,물",무 ,무 ,무 ,무 ,무 ,유 ,3266,X,,,,,,,,,,,,,,,,,,,,,,,,,,,,,,,,,
스미세이케미컬,경기도 ,37.8166946,126.7552065,20140108,,공정 설비 ,작업자 부주의 ,디클로로실란 가스(DCS가스) ,누출 ,산업용 가스 제조업,0,1,,4109-96-0,기체,무색,자극적인 냄새 ,,-122,8,-28,,99,4.1,1.61,20,,,3.48,,,,58,,,,101.01,불연성,"열,스파크,화염,고열",물,무 ,무 ,무 ,무 ,무 ,유 ,10,X,,,,,,,,,,,,,,,,,,,,,,,,,,,,,18,황산,산업용 가스,1,
AK켐텍,충청남도,36.4185905,126.9475873,20140122,6:20,배관 ,작업자 부주의 ,수산화나트륨(2%),누출 ,"유기계면활성제,비누제품,의약품,강화플라스틱,도료,합성수지 제조/도료,강화플라스틱 도소매",0,2,,1310-73-2,고체 ,흰색 ,무향 ,극염기성 ,318,1390,,,,,,,109,20,,2.13,20,-3.88,,,4,350,40,불연성,열,"가연성 물질,환원성 물질,
금속",무 ,무 ,무 ,유 ,유 ,유 ,,X,,,,,,,,,,,,,,,,,,,,,,,,,,,,,18,,"유기계면활성제,비누제품,의약품,강화플라스틱,도료,합성수지 제조/도료,강화플라스틱",1,
일진LED,경기도 ,37.3118528,126.7823931,20140208,,배관 ,시설 관리 미흡 ,폐산 ,누출 ,발광 다이오드 제조업,0,0,,,,,,,,,,,,,,,,,,,,,,,,,,불연성,,,,,,,,,3,X,,,,,,,,,,,,,,,,,,,,,,,,,,,,,,,,,
 ㈜한미화학공업,전라북도,35.9530754,127.0144707,20140215,,반응기 ,시설 관리 미흡 ,황산알루미늄,파손,산업용 가스 제조업,0,0,,10043-01-3,고체,,무향 ,산성 ,770,,,,,,0.031,0,,,,1.61,,,,770,,,342.14,불연성,"열,스파크,화염 ","가연성물질,환원성물질 ",유 ,무 ,유 ,유 ,유 ,유 ,,X,,,,,,,,,,,,,,,,,,,,,,,,,,,,,1,,산업용 가스 ,1,
연성정밀화학,경기도 ,37.0848698,126.8604425,20140215,,옥외 저장소,작업자 부주의 ,톨루엔,화재 ,의약용 화합물 및 항생물질 제조업,0,0,,108-88-3,액체,무색,벤젠 냄새,,-94.9,110.6,4,,7.8,1,0.037,25,0.526,25,3.1,,,2.73,480,,0.56,25,92.14,불연성,"열,스파크,화염,고열",,무 ,무 ,무 ,무 ,무 ,유 ,,X,,,,,,,,,,,,,,,,,,,,,,,,,,,,,150,,"의약용 화합물, 의약용 항생물질",1,
,울산광역시,35.4383069,129.351303,20140222,,도로 ,작업자 부주의 ,m-자일렌  다이아이소사이아네이트,누출 ,,0,0,,3634-83-1,액체,,,,-7,159~162,174,,,,1.15E-06,,0.0139,,,1.202,,3,,,,,188.1854,인화성 ,"열,스파크,화염 ",,무 ,무 ,무 ,무 ,무 ,유 ,,X,,,,,,,,,,,,,,,,,,,,,,,,,,,,,,,,,
이수화학,울산광역시,35.4370029,129.3319125,20140225,14:47,배관 ,시설 관리 미흡 ,불화수소,누출 ,석유화학계 기초 화학물질 제조업,0,0,,7664-39-3,기체 ,무색 ,자극적인 냄새 ,산성 ,-83.53,19.51,,,,,1.2,25,,,0.95,1,,,,,0.256,0,20.01,불연성,열,"물,
분리 그룹",무 ,무 ,무 ,무 ,무 ,유 ,100,X,,,,,,,,,,,,,,,,,,,,,,,,,,,,,100,플루오르화 수소,석유화학계 기초 화학물질,2,
GJ물류,경기도 ,37.6409837,126.866536,20140304,,창고 ,시설 관리 미흡 ,암모니아 ,누출 ,물류업 ,0,0,,7664-41-7,기체 ,무색 ,자극적인 냄새 ,염기성 ,-78,-33.35,132,,15,33.6,9.99,26,54,20,0.59,0.7,-33,0.23,651,382.8,0.255,,17.03,불연성,"열,스파크,화염,고열","물,강산화제,산,할로겐화물,중금속,분리그룹 ",무 ,무 ,무 ,무 ,무 ,유 ,,X,,,,,,,,,,,,,,,,,,,,,,,,,,,,,,,,1,
디에이피,경기도 ,36.961773,127.249444,20140309,,공정 설비  ,시설 관리 미흡 ,,화재 ,휴대폰용 기판(PCB) 제조업체,0,0,,,,,,,,,,,,,,,,,,,,,,,,,,불연성,,,,,,,,,,X,,,,,,,,,,,,,,,,,,,,,,,,,,,,,640,황산,휴대폰용 기판(PCB),1,
㈜중앙바이오켐,충청북도,36.4229354,127.7277455,20140317,,페 저장 설비 ,시설 관리 미흡 ,폐혼합물 ,누출 ,"
유동화제 제조",0,0,,,,,,,,,,,,,,,,,,,,,,,,,,불연성,,,,,,,,,1,X,,,,,,,,,,,,,,,,,,,,,,,,,,,,,,,,1,
(주)에스에이치,경상북도 ,35.9540335,128.3399055,20140325,,저장 설비 ,작업자 부주의 ,질산 가스 ,유출 ,농업 및 임업용 기계 제조업,0,0,,7697-37-2,액체,무색,자극적인 냄새 ,,-41.6,121,,,,,0.0012,20,50,20,2.2,1.5128,,-0.21,,,0.746,25,63.0119,불연성,"열,스파크,화염,고열","가연성물질,금속,물 ",무,무,무,유,유,유 ,,X,,,,,,,,,,,,,,,,,,,,,,,,,,,,,,,,1,
LG화학 기술연구원,충청남도,36.39021,127.396795,20140327,15:49,실험실 ,시설 관리 미흡 ,헥산,폭발 ,기타 화학 연구개발업,0,0,,110-54-3,액체 ,무색 ,휘발유 냄새,,-95.35,68.73,-22,,7.5,1.1,0.2,25,0.0013,20,2.97,0.66,,3.9,225,,0.326,20,86.18,불연성,"열,스파크,화염,고열",,유 ,유 ,유 ,무 ,무 ,무 ,,X,,,,,,,,,,,,,,,,,,,,,,,,,,,,,2500,,기타 화학 연구개발,1,
(주)알파켐,경기도 ,37.2213823,126.9651749,20140328,,폐 저장 설비 ,시설 관리 미흡 ,초산 ,유출 ,인쇄잉크 및 회화용 물감 제조업,0,0,,64-19-7,액체 ,무색 ,,산성 ,16.6,117.9,39,,17,6,0.021,25,30.29,25,,1.05,,-0.17,485,,1.056,25,60.0516,불연성,"열,스파크,화염,고열",,무 ,무 ,무 ,무 ,무 ,유 ,40,X,,,,,,,,,,,,,,,,,,,,,,,,,,,,,50,,"인쇄잉크,회화용 물감 ",1,
(주)신화인터텍,충청남도,36.7399588,127.3148813,20140329,,생산 설비 ,시설 관리 미흡 ,,화재 ,플라스틱 접착처리 제품 제조업,0,0,,,,,,,,,,,,,,,,,,,,,,,,,,불연성,,,,,,,,,,X,,,,,,,,,,,,,,,,,,,,,,,,,,,,,330,,플라스틱 접착처리 제품,1,
(주)삼주,경기도 ,37.3272336,126.7237225,20140403,,제조 설비 ,시설 관리 미흡 ,차아염소산나트륨 ,누출 ,기타 기초 무기 화학물질 제조업,0,0,,7681-52-9,액체,노란색,독특한 냄새 ,염기성 ,-20,40,,,,,0.018,20,29.3,0,0.7,1.1,,,,,,,74.4,불연성,열 ,"가연성물질,환원성물질,금속 ",무 ,무 ,무 ,유 ,유 ,유 ,50,X,,,,,,,,,,,,,,,,,,,,,,,,,,,,,32,,기타 기초 무기 화학물질,1,
두산바이오텍,전라북도 익산시 석암로11길(제2산업단지 내),35.95256,127.0148367,20140409,,제조 설비 ,작업자 부주의 ,헥산,폭발 ,,0,1,,110-54-3,액체 ,무색 ,휘발유 냄새,,-95.35,68.73,-22,,7.5,1.1,0.2,25,0.0013,20,2.97,0.66,,3.9,225,,0.326,20,86.18,고인화성 ,"열,스파크,화염,고열",,유 ,유 ,유 ,무 ,무 ,무 ,,X,,,,,,,,,,,,,,,,,,,,,,,,,,,,,,,,,
두루케미칼 ,경기도 ,37.2985087,126.7937172,20140415,10:58,반응기 ,작업자 부주의 ,우레탄수지 ,폭발 ,계면활성제 제조업,1,2,,61789-63-7,,,,,,,,,,,,,,,,,,,,,,,,,,,,,,,,,,X,,,,,,,,,,,,,,,,,,,,,,,,,,,,,,,계면활성제,1,
,경상북도 상주시 낙동면 중부내륙고속도로 상행 139km지점,36.4638464,128.2001568,20140418,,도로 ,운송차량사고 ,무수프탈산(프탈산 언하이드라이드),화재 ,,0,0,,85-44-9,고체,광택의 흰색 ,특유의 냄새 ,,131.4,285.3,152,,10.4,1.7,6.80E-07,25,0.62,25,6.6,1.53,20,1.6,570,,,,148.116,가연성 ,"열,스파크,화염 ","금속
물",무 ,무 ,무 ,무 ,무 ,유 ,,X,,,,,,,,,,,,,,,,,,,,,,,,,,,,,,,,,
,경기도 안산시 단원구 성곡동 오스람삼거리 부근,37.3266631,126.8015061,20140422,10:30,도로 ,운송차량사고 ,혼합물 ,유출 ,,0,0,,,,,,,,,,,,,,,,,,,,,,,,,,,,,,,,,,,,X,,,,,,,,,,,,,,,,,,,,,,,,,,,,,,,,,
가천대학교 ,경기도 ,37.4225929,126.6878456,20140425,12:49,실험실 ,작업자 부주의 ,질산,누출 ,대학교 ,0,3,,7697-37-2,액체,무색,자극적인 냄새 ,,-41.6,121,,,,,0.0012,20,50,20,2.2,1.5128,,-0.21,,,0.746,25,63.0119,불연성,"열,스파크,화염,고열","가연성물질,금속,물 ",무,무,무,유,유,유 ,0.25,X,,,,,,,,,,,,,,,,,,,,,,,,,,,,,,,,1,
연세대학교 ,서울특별시,37.5663937,126.9387066,20140508,,연구실 ,작업자 부주의 ,질산 ,폭발 ,대학교 ,0,0,,7697-37-2,액체,무색,자극적인 냄새 ,,-41.6,121,,,,,0.0012,20,50,20,2.2,1.5128,,-0.21,,,0.746,25,63.0119,불연성,"열,스파크,화염,고열","가연성물질,금속,물 ",무,무,무,유,유,유 ,1,X,,,,,,,,,,,,,,,,,,,,,,,,,,,,,,,,2,
㈜에스케이케미컬,울산광역시,35.4607272,129.3578109,20140508,18:34,저장 설비 ,작업자 부주의 ,염화메틸렌 ,질식 ,합성수지 및 기타 플라스틱 물질 제조업,0,3,,107-06-2,점성 액체,무색,,,-35.3,83.5,13,,16,6.2,0.103,25,0.79,25,,1.2455,,1.45,440,,0.831,20,98.9596,인화성,"열,스파크,화염,고열",,무,무,무,무,무,유,,X,,,,,,,,,,,,,,,,,,,,,,,,,,,,,,"합성수지,기타 플라스틱 물질 ",,,
,전라남도 화순군 이양면 매정리 쌍봉교차로,34.8692219,127.0394518,20140512,14:57,도로 ,운송차량사고 ,혼합물 ,유출 ,,,,,,,,,,,,,,,,,,,,,,,,,,,,,,,,,,,,,,500,X,,,,,,,,,,,,,,,,,,,,,,,,,,,,,,,,,
㈜지엠이앤씨,경기도 ,37.0981537,127.396745,20140516,16:00,창고 ,작업자 부주의 ,알루미늄 분진 ,연기 발생 ,내부 전기배선 공사업,0,0,,7429-90-5,고체,은백색 ,무향 ,,660,2327,,,,,,,,,,2.7,,,590,,,,26.98,,"습기
열,스파크,화염 ",물,,유 ,유 ,유 ,무 ,무 ,,X,,,,,,,,,,,,,,,,,,,,,,,,,,,,,,,,1,
그래핀올(주) ,경기도 ,37.3380764,126.7098888,20140519,,실험실 ,작업자 부주의 ,황산 ,누출,전기ㆍ전자공학 연구개발업,0,1,,7664-93-9,액체 ,무색 ,무향 ,강산성 ,10.4~10.94,337,,,,,0.0059,20,,,1.81,1.8,,-2.2,,340,21,,98.079,,"열,스파크,화염 ","가연성물질,금속,물",무 ,무 ,무 ,무 ,무 ,유 ,2.6,X,,,,,,,,,,,,,,,,,,,,,,,,,,,,,8,,"전기ㆍ전자공학 연구,개발",1,
,경기도 남양주시 별내면 청학리 523-5 청학2터널 공사현장,37.7052703,127.117202,20140520,,공사장 ,작업자 부주의 ,황산 ,유출 ,,0,0,인근 집 수조로 유출 ,7664-93-9,액체 ,무색 ,무향 ,강산성 ,10.4~10.94,337,,,,,0.0059,20,,,1.81,1.8,,-2.2,,340,21,,98.079,,"열,스파크,화염 ","가연성물질,금속,물",무 ,무 ,무 ,무 ,무 ,유 ,,X,,,,,,,,,,,,,,,,,,,,,,,,,,,,,,,,,
고려대학교 ,서울특별시,37.5893876,127.0324773,20140602,,연구실 ,작업자 부주의 ,질산 ,화재 ,대학교 ,0,0,,7697-37-2,액체,무색,자극적인 냄새 ,,-41.6,121,,,,,0.0012,20,50,20,2.2,1.5128,,-0.21,,,0.746,25,63.0119,불연성,"열,스파크,화염,고열","가연성물질,금속,물 ",무,무,무,유,유,유 ,,X,,,,,,,,,,,,,,,,,,,,,,,,,,,,,684,,,1,
(주)메디진,충청남도,36.399909,127.389376,20140604,,실험실 ,작업자 부주의 ,수소,폭발 ,석탄화학계 화합물 및 기타 기초 유기 화학물질 제조업,0,1,,1333-74-0,기체 ,무색 ,무향 ,,-259,-253,,,75,4,1631.58,25,0.000162,21,0.07,,,0.45,540,,0.0256,26.8,2,극인화성 ,"열,스파크,화염,고열",,유 ,유 ,유 ,무 ,무 ,무 ,,X,,,,,,,,,,,,,,,,,,,,,,,,,,,,,17,,"석탄화학계 화합물,기타 기초 유기 화학물질",1,
우향전자 ,경상북도,36.1504277,128.4598391,20140609,,작업장 ,작업자 부주의 ,디클로로프로판 ,연기 발생 ,그 외 기타 전자부품 제조업,0,0,,26638-19-7,액체 ,무색 ,클로로포름 냄새 ,,,88.1,,,,,0.067,,0.27,,,1.1,,2.25,,,,,112.99,고인화성,"열,스파크,화염,고열",,유 ,유 ,유 ,무 ,무 ,무 ,,X,,,,,,,,,,,,,,,,,,,,,,,,,,,,,,,,1,
㈜코스모화학,울산광역시,35.4178582,129.3442726,20140612,,배관  ,작업자 부주의 ,황산 ,누출 ,바이오 연료 및 혼합물 제조업,0,1,,7664-93-9,액체 ,무색 ,무향 ,강산성 ,10.4~10.94,337,,,,,0.0059,20,,,1.81,1.8,,-2.2,,340,21,,98.079,,"열,스파크,화염 ","가연성물질,금속,물",무 ,무 ,무 ,무 ,무 ,유 ,10,X,,,,,,,,,,,,,,,,,,,,,,,,,,,,,180,"황산, 질산","바이오 연료, 바이오 화합물",2,
,경기도 화성시 매송면 송라리 매송 IC인근,37.2775131,126.8972633,20140616,,도로 ,운송차량사고 ,에틸아세테이트(2-에톡시에틸아세테이트),누출 ,,0,0,,111-15-9 ,액체,무색,과일향 ,,-62,156,51,,14,1.3,0.0026,20,29.9,20,4.56,0.97,,0.24,380,,,,132.16,,"열,스파크,화염,고열",,유,유,유,무,무,무 ,30,X,,,,,,,,,,,,,,,,,,,,,,,,,,,,,,,,,
동양페인트 가게,경기도 ,37.8240575,126.9838205,20140629,,가게 ,작업자 부주의 ,질산,이상 화학반응 ,기타 생활용품 소매업 ,0,0,,7697-37-2,액체,무색,자극적인 냄새 ,,-41.6,121,,,,,0.0012,20,50,20,2.2,1.5128,,-0.21,,,0.746,25,63.0119,불연성,"열,스파크,화염,고열","가연성물질,금속,물 ",무,무,무,유,유,유 ,,X,,,,,,,,,,,,,,,,,,,,,,,,,,,,,,,,1,
  고물상,경기도 ,37.4410006,127.1390643,20140630,,가게 ,작업자 부주의 ,과산화수소 ,유출 ,재생용 재료 수집 및 판매업 ,0,0,,7722-84-1,액체,무색 ,무향 ,약산성 ,-11,141,,,,,0.0026,25,100,25,1,1.4425,25,-1.36,,,1.245,,34.01,강산화제 ,"열,스파크,화염,마찰,오염 ","의복,가연성물질,물,연료 ",무 ,무 ,무 ,무 ,무 ,유 ,,X,,,,,,,,,,,,,,,,,,,,,,,,,,,,,,,,,
"경인지방식품의약품안전청
시험분석센터",인천광역시,37.4282729,126.9859566,20140703,,연구실,작업자 부주의 ,질산,유출 ,"기술 시험, 검사 및 분석업 ",0,0,,7697-37-2,액체,무색,자극적인 냄새 ,,-41.6,121,,,,,0.0012,20,50,20,2.2,1.5128,,-0.21,,,0.746,25,63.0119,불연성,"열,스파크,화염,고열","가연성물질,금속,물 ",무,무,무,유,유,유 ,5,X,,,,,,,,,,,,,,,,,,,,,,,,,,,,,,,,1,
,충청남도,36.5184,126.8,20140703,,도로 ,운송차량사고 ,수산화나트륨 ,누출 ,,0,0,,1310-73-2,고체 ,흰색 ,무향 ,극염기성 ,318,1390,,,,,,,109,20,,2.13,20,-3.88,,,4,350,40,비인화성 ,열,"가연성 물질,환원성 물질,
금속",무 ,무 ,무 ,유 ,유 ,유 ,908,X,,,,,,,,,,,,,,,,,,,,,,,,,,,,,,,,,
,부산 서구 원양로 171 감천3부두 인성글로벌냉장 옆,35.07259,129.006888,20140704,,배관 ,시설 관리 미흡 ,암모니아 ,누출 ,,0,0,,7664-41-7,기체 ,무색 ,자극적인 냄새 ,염기성 ,-78,-33.35,132,,15,33.6,9.99,26,54,20,0.59,0.7,-33,0.23,651,382.8,0.255,,17.03,극인화성 ,"열,스파크,화염,고열","물,강산화제,산,할로겐화물,중금속,분리그룹 ",무 ,무 ,무 ,무 ,무 ,유 ,50,X,,,,,,,,,,,,,,,,,,,,,,,,,,,,,,,,,
레이크머티리얼즈,세종특별시,36.632716,127.1625686,20140710,,배관 ,작업자 부주의 ,액상나트륨 ,폭발 ,그 외 기타 분류 안된 화학제품 제조업,0,2,,7440-23-5,고체,은백색,무향 ,,97.85,881.4,4,자료없음,,,1.83,127,,,,0.97,,-0.77,122.5,,0.68,,22.99,인화성,"습기
열,스파크,화염 ","불활성 기체 하에서 취급하고, 습기를 방지 필요 
물",무 ,무 ,무 ,무 ,무 ,유 ,,X,,,,,,,,,,,,,,,,,,,,,,,,,,,,,15,나트륨,그 외 기타 분류 안된 화학제품 ,1,
,경기도 영동고속도로 용인휴게소(강릉방향)인근,37.2455787,127.2419807,20140711,,도로 ,운송차량사고 ,암모니아수 ,누출 ,,0,0,,1336-21-6,휘발성 액체 ,무색 ,자극적인 냄새 ,,-77,36,,,,,0.47,20,100,25,1.2,0.9,,-2.66,,,,,35.05,비인화성 ,열,"가연성 물질,환원성 물질,
금속",무 ,무 ,무 ,유 ,유 ,유 ,,X,,,,,,,,,,,,,,,,,,,,,,,,,,,,,,,,,
태양수산 ,경상남도 ,34.9475173,128.3312959,20140712,,배관 ,작업자 부주의 ,암모니아 ,누출,기타 수산동물 가공 및 저장 처리업,0,0,,7664-41-7,기체 ,무색 ,자극적인 냄새 ,염기성 ,-78,-33.35,132,,15,33.6,9.99,26,54,20,0.59,0.7,-33,0.23,651,382.8,0.255,,17.03,극인화성 ,"열,스파크,화염,고열","물,강산화제,산,할로겐화물,중금속,분리그룹 ",무 ,무 ,무 ,무 ,무 ,유 ,,X,,,,,,,,,,,,,,,,,,,,,,,,,,,,,,,,1,
재윤상사,경기도 ,37.663058,126.8601098,20140713,,창고 ,시설 관리 미흡 ,질산 ,유출 ,"문구용품, 회화용품, 사무용품 도매업",0,0,,7697-37-2,액체,무색,자극적인 냄새 ,,-41.6,121,,,,,0.0012,20,50,20,2.2,1.5128,,-0.21,,,0.746,25,63.0119,불연성,"열,스파크,화염,고열","가연성물질,금속,물 ",무,무,무,유,유,유 ,20,X,,,,,,,,,,,,,,,,,,,,,,,,,,,,,1,,"문구용품, 회화용품, 사무용품",1,
경인CNI,경상북도,36.417616,129.3669132,20140713,,밸브 ,시설 관리 미흡 ,암모니아 ,누출 ,,0,0,,7664-41-7,기체 ,무색 ,자극적인 냄새 ,염기성 ,-78,-33.35,132,,15,33.6,9.99,26,54,20,0.59,0.7,-33,0.23,651,382.8,0.255,,17.03,극인화성 ,"열,스파크,화염,고열","물,강산화제,산,할로겐화물,중금속,분리그룹 ",무 ,무 ,무 ,무 ,무 ,유 ,,X,,,,,,,,,,,,,,,,,,,,,,,,,,,,,,,,1,
대덕지디에스,경기도 ,37.3161173,126.7744408,20140715,,창고 ,시설 관리 미흡 ,혼합물 ,유출 ,인쇄회로기판 제조업,0,1,,,,,,,,,,,,,,,,,,,,,,,,,,,,,,,,,,,50,X,,,,,,,,,,,,,,,,,,,,,,,,,,,,,459,,인쇄회로기판,1,
,서울특별시,37.5665,126.9779,20140716,,도로 ,운송차량사고 ,혼합물 ,유출 ,,0,0,,,,,,,,,,,,,,,,,,,,,,,,,,,,,,,,,,,,X,,,,,,,,,,,,,,,,,,,,,,,,,,,,,,,,,
,경기도 오산시 원동 757-21 쉐보레 오산대리점 앞,37.1461737,127.0737898,20140717,,도로 ,운송차량사고 ,초산 ,유출 ,,0,0,,64-19-7,액체 ,무색 ,,산성 ,16.6,117.9,39,,17,6,0.021,25,30.29,25,,1.05,,-0.17,485,,1.056,25,60.0516,인화성 ,"열,스파크,화염,고열",,무 ,무 ,무 ,무 ,무 ,유 ,,X,,,,,,,,,,,,,,,,,,,,,,,,,,,,,,,,,
㈜현대중공업,충청북도,36.6403272,127.4794838,20140717,,배관  ,시설 관리 미흡 ,암모니아수 ,누출 ,기타 선박 건조업,0,0,,1336-21-6,휘발성 액체 ,무색 ,자극적인 냄새 ,,-77,36,,,,,0.47,20,100,25,1.2,0.9,,-2.66,,,,,35.05,비인화성 ,열,"가연성 물질,환원성 물질,
금속",무 ,무 ,무 ,유 ,유 ,유 ,0.4,X,,,,,,,,,,,,,,,,,,,,,,,,,,,,,,,,,
돼지농장,경기도 ,37.2332429,127.3713355,20140717,,저장 설비 ,시설 관리 미흡 ,염산 ,연기 발생 ,양돈업 ,0,0,,10361-95-2,고체 ,노란색 ,,,,,,,,,,,262,20,,2.15,,,,60,,,232.29,,"열,스파크,화염,고열","가연성물질,연료 ",유,유,유,무,무,무,,X,,,,,,,,,,,,,,,,,,,,,,,,,,,,,,,,1,
,울산광역시 남항 4부두 2선석 ,35.5207974,129.3753549,20140717,,배관 ,시설 관리 미흡 ,,폭발음 발생 ,,0,0,,,,,,,,,,,,,,,,,,,,,,,,,,,,,,,,,,,,X,,,,,,,,,,,,,,,,,,,,,,,,,,,,,,,,,
,경기도 화성시 제2서해안고속도로 송산마도IC에서 시흥방향 23km지점,37.2096679,126.7597922,20140718,,도로 ,운송차량사고 ,염산 ,유출 ,,0,0,,10361-95-2,고체 ,노란색 ,,,,,,,,,,,262,20,,2.15,,,,60,,,232.29,,"열,스파크,화염,고열","가연성물질,연료 ",유,유,유,무,무,무,,X,,,,,,,,,,,,,,,,,,,,,,,,,,,,,,,,,
㈜전영,충청남도,36.8030956,126.724043,20140721,,혼합기 ,작업자 부주의 ,혼합물 ,화재 ,그 외 기타 분류 안된 화학제품 제조업,0,0,,,,,,,,,,,,,,,,,,,,,,,,,,,,,,,,,,,,X,,,,,,,,,,,,,,,,,,,,,,,,,,,,,30,풀루오르화 수소,그 외 기타 분류 안된 화학제품,1,
,경기도 안산시 단원구 신길동 남안산IC인근 만해주유소 부근,37.3285043,126.749804,20140723,,도로 ,운송차량사고 ,염산(35%),누출 ,,0,0,,10361-95-2,고체 ,노란색 ,,,,,,,,,,,262,20,,2.15,,,,60,,,232.29,,"열,스파크,화염,고열","가연성물질,연료 ",유,유,유,무,무,무,,X,,,,,,,,,,,,,,,,,,,,,,,,,,,,,,,,,
하남산단 ,경기도 ,35.1899018,126.8017412,20140723,,저장 설비 ,작업자 부주의 ,질산 ,연기 발생 ,산업단지 ,0,0,,7697-37-2,액체,무색,자극적인 냄새 ,,-41.6,121,,,,,0.0012,20,50,20,2.2,1.5128,,-0.21,,,0.746,25,63.0119,불연성,"열,스파크,화염,고열","가연성물질,금속,물 ",무,무,무,유,유,유 ,1.5,X,,,,,,,,,,,,,,,,,,,,,,,,,,,,,,,,,
LG화학 대산공장,충청남도,36.9935984,126.3861456,20140725,,반응기 ,시설 관리 미흡 ,헥산,누출 ,석유화학계 기초 화학물질 제조업,0,0,,110-54-3,액체 ,무색 ,휘발유 냄새,,-95.35,68.73,-22,,7.5,1.1,0.2,25,0.0013,20,2.97,0.66,,3.9,225,,0.326,20,86.18,고인화성 ,"열,스파크,화염,고열",,유 ,유 ,유 ,무 ,무 ,무 ,,X,,,,,,,,,,,,,,,,,,,,,,,,,,,,,1147,,석유화학계 기초 화학물질,1,
여수해양조선소,전라남도 ,34.7313299,127.7543012,20140731,,저장 설비 ,시설 관리 미흡 ,암모니아 ,누출 ,조선업 ,1,9,,7664-41-7,기체 ,무색 ,자극적인 냄새 ,염기성 ,-78,-33.35,132,,15,33.6,9.99,26,54,20,0.59,0.7,-33,0.23,651,382.8,0.255,,17.03,극인화성 ,"열,스파크,화염,고열","물,강산화제,산,할로겐화물,중금속,분리그룹 ",무 ,무 ,무 ,무 ,무 ,유 ,,X,,,,,,,,,,,,,,,,,,,,,,,,,,,,,,,,1,
세계로케미칼,경기도 ,37.2183279,126.7822385,20140801,,야적장 ,시설 관리 미흡 ,혼합물 ,화재 ,기타 화학물질 및 화학제품 도매업,0,1,,,,,,,,,,,,,,,,,,,,,,,,,,,,,,,,,,,,X,,,,,,,,,,,,,,,,,,,,,,,,,,,,,19,,"기타 화학물질, 기타 화학제품",1,
㈜동인산업,경기도 ,37.1971111,127.1707389,20140802,,저장 설비 ,시설 관리 미흡 ,황산(98%),유출 ,합성수지 및 기타 플라스틱 물질 제조업,0,0,,7664-93-9,액체 ,무색 ,무향 ,강산성 ,10.4~10.94,337,,,,,0.0059,20,,,1.81,1.8,,-2.2,,340,21,,98.079,,"열,스파크,화염 ","가연성물질,금속,물",무 ,무 ,무 ,무 ,무 ,유 ,5,X,,,,,,,,,,,,,,,,,,,,,,,,,,,,,8,황산,"합성수지 물질,기타 플라스틱 물질",1,
서울대학교 ,서울특별시,37.4593505,126.9511364,20140805,,실험실 ,작업자 부주의 ,바륨옥사이드(산화바륨),유출 ,대학교 ,0,0,,1304-28-5,고체,흰색 ,무향 ,극염기성 ,1923,2000,,,,,,,,,5.7,5.7,,,,,,,153.3,비인화성 ,열,"금속,
물",무 ,무 ,무 ,유 ,유 ,유 ,0.5,X,,,,,,,,,,,,,,,,,,,,,,,,,,,,,,,,4,
,서울특별시 종로구 종로4가 141-1번지 도로변 탑차,37.570582,126.9988007,20140805,,도로 ,운송차량사고 ,질산 ,유출 ,,0,0,,7697-37-2,액체,무색,자극적인 냄새 ,,-41.6,121,,,,,0.0012,20,50,20,2.2,1.5128,,-0.21,,,0.746,25,63.0119,불연성,"열,스파크,화염,고열","가연성물질,금속,물 ",무,무,무,유,유,유 ,1.5,X,,,,,,,,,,,,,,,,,,,,,,,,,,,,,,,,,
한일종합물류 ,인천광역시,37.5345067,126.738105,20140819,,사업장 ,시설 관리 미흡 ,비닐 아세테이트 ,누출 ,물류업 ,0,7,,108-05-4,액체 ,무색 ,달콤한 냄새,,-93.2,72.7,-8,8.9,13.4,2.6,0.11,20,2,20,3,0.9,,0.93,385,,0.43,20,86.09,고인화성 ,"열,스파크,화염,고열",,유 ,유 ,유 ,무 ,무 ,무 ,,X,,,,,,,,,,,,,,,,,,,,,,,,,,,,,,,,1,
, 경기도 성남시 중원구 성남동 4146 모란사거리,37.4330273,127.1293669,20140821,,도로 ,운송차량사고 ,질산 ,유출 ,,0,0,,7697-37-2,액체,무색,자극적인 냄새 ,,-41.6,121,,,,,0.0012,20,50,20,2.2,1.5128,,-0.21,,,0.746,25,63.0119,불연성,"열,스파크,화염,고열","가연성물질,금속,물 ",무,무,무,유,유,유 ,,X,,,,,,,,,,,,,,,,,,,,,,,,,,,,,,,,,
한국나노기술원 ,경기도 ,37.2929597,127.0422603,20140821,,연구실 ,작업자 부주의 ,혼합물 ,화상 ,기타 과학기술 서비스업,0,1,,7722-84-1,,,,,,,,,,,,,,,,,,,,,,,,,,,,,,,,,,X,,,,,,,,,,,,,,,,,,,,,,,,,,,,,,,,1,
"수협
감천항 물류센터",부산광역시,35.0635671,129.0123728,20140821,,사업장 ,시설 관리 미흡 ,암모니아 ,누출 ,물류업 ,0,,,7664-41-7,기체 ,무색 ,자극적인 냄새 ,염기성 ,-78,-33.35,132,,15,33.6,9.99,26,54,20,0.59,0.7,-33,0.23,651,382.8,0.255,,17.03,극인화성 ,"열,스파크,화염,고열","물,강산화제,산,할로겐화물,중금속,분리그룹 ",무 ,무 ,무 ,무 ,무 ,유 ,,X,,,,,,,,,,,,,,,,,,,,,,,,,,,,,30,,,1,
AID,인천광역시 남동구 남동동로 198번길 21 남동공단 76블럭 15로트 AID(전자회로기판제조),37.4016568,126.7034851,20140822,,공정 설비 ,작업자 부주의 ,염소산나트륨,누출 ,전자회로기판 제조업,0,22,,7775-09-09,고체,무색,무향 ,중성 ,248,,,,,,,,100,20,3.7,2.5,,,,300,,,106.44,산화제 ,"열,스파크,화염,고열","가연성물질,연료 ",유 ,유 ,유 ,무 ,무 ,무 ,,X,,,,,,,,,,,,,,,,,,,,,,,,,,,,,23,,전자회로기판,1,
,경기도 제2경인고속도로 광명터널 내(광명IC>안양방향),37.4397147,126.8501522,20140822,,도로 ,운송차량사고 ,염산,유출 ,,0,0,,10361-95-2,고체 ,노란색 ,,,,,,,,,,,262,20,,2.15,,,,60,,,232.29,,"열,스파크,화염,고열","가연성물질,연료 ",유,유,유,무,무,무,10,X,,,,,,,,,,,,,,,,,,,,,,,,,,,,,,,,,
㈜화인알텍,경상북도,35.9696153,128.4230143,20140822,,배관 ,작업자 부주의 ,염산 ,유출 ,그 외 기타 전자부품 제조업,0,10,,10361-95-2,고체 ,노란색 ,,,,,,,,,,,262,20,,2.15,,,,60,,,232.29,,"열,스파크,화염,고열","가연성물질,연료 ",유,유,유,무,무,무,200,X,,,,,,,,,,,,,,,,,,,,,,,,,,,,,90,,전자 부품,1,
 램테크놀러지(주),충청남도,36.1828519,127.5247155,20140824,,창고 ,작업자 부주의 ,불화수소,누출 ,석탄화학계 화합물 및 기타 기초 유기 화학물질 제조업,0,7,,7664-39-3,기체 ,무색 ,자극적인 냄새 ,산성 ,-83.53,19.51,,,,,1.2,25,,,0.95,1,,,,,0.256,0,20.01,불연성,열,"물,
분리 그룹",무 ,무 ,무 ,무 ,무 ,유 ,7.2,X,,,,,,,,,,,,,,,,,,,,,,,,,,,,,52,"불산, 무수불산, 염산",석탄화학계 화합물,3,
가정집 ,경상북도 ,36.248647,128.664734,20140825,,가정집 ,작업자 부주의 ,염산 ,노출 ,,0,1,,10361-95-2,고체 ,노란색 ,,,,,,,,,,,262,20,,2.15,,,,60,,,232.29,,"열,스파크,화염,고열","가연성물질,연료 ",유,유,유,무,무,무,2,X,,,,,,,,,,,,,,,,,,,,,,,,,,,,,,,,,
㈜일성화학,인천광역시 남동구 남촌동 621-1,37.415631,126.6999957,20140826,,배관 ,작업자 부주의 ,염소가스,누출 , ,0,0,,7782-50-5,액체 ,노란색,자극적인 냄새 ,강염기성,-101.05,-34.05,,,,,7.67,25,0.741,20,,1.424,15,0.85,,,0.013,20,70.905,비연소성,"공기,습한공기
,열","가연성물질, 환원성 물질
,다수의 유기화합물, 암모니아, 수소, 파편화된 금속",무,무,무,무,무,유 ,,X,,,,,,,,,,,,,,,,,,,,,,,,,,,,,15,염소,"기초무기화학물질,기타 기초 유기 화학물질",1,
㈜경인양행,경기도 ,37.3322899,126.7072503,20140827,,배관 ,시설 관리 미흡 ,클로로설폰산(클로로설폰산 염소화 에텐 호모중합체),누출 ,"염료, 조제 무기안료, 유연제 및 기타 착색제 제조업",0,0,,68037-39-8,고체 ,흰색,,,87,,,,,,,,,,,1.2,,,,,,,,비연소성,"열,스파크,화염 ",가연성물질 ,무 ,무 ,무 ,무 ,무 ,무 ,1,X,,,,,,,,,,,,,,,,,,,,,,,,,,,,,1,황산,"염료,조제 무기 안료,유연제,기타 착색제",1,
엑스포정공,전라남도 ,34.8031962,127.6658239,20140827,,차량 ,작업자 부주의 ,메틸아크릴레이트 ,누출,탱크로리 차량 정비업,0,0,,96-33-3,휘발성 액체,무색 ,매캐한 냄새 ,,-76.5,80.5,-7.78,,25,2.8,0.12,25,1.8,20,2.97,0.9535,20,0.8,468,,0.482,,86.09,비연소성,"열,스파크,화염,고열",,무 ,무 ,무 ,무 ,무 ,유 ,,X,,,,,,,,,,,,,,,,,,,,,,,,,,,,,,,,1,
,경상북도 ,36.248647,128.664734,20140828,,도로 ,작업자 부주의 ,염산 ,누출 ,,,,,10361-95-2,고체 ,노란색 ,,,,,,,,,,,262,20,,2.15,,,,60,,,232.29,비연소성,"열,스파크,화염,고열","가연성물질,연료 ",유,유,유,무,무,무,5,X,,,,,,,,,,,,,,,,,,,,,,,,,,,,,,,,,
㈜중앙산업가스,충청남도,3725765,127.419571,20140829,,사업장 ,시설 관리 미흡 ,염화수소 ,누출 ,산업용 가스 제조업,0,0,,7647-01-0,기체,무색,자극적인 냄새 ,,-114,-85,,,,,0.047,25,67,30,,,,0.25,,,,,36.4609,비연소성,열,물,무,무,무,무,무,유 ,4,X,,,,,,,,,,,,,,,,,,,,,,,,,,,,,,,,1,
둔산여고 ,충청남도,36.3534121,127.3734975,20140830,,실험실 ,작업자 부주의 ,포르말린(포름알데히드),유출 ,일반 고등학교,0,0,,50-00-0,액체 ,무색 ,,산성 ,-92,-19~-21,80.5,,73,7,0.0013,20,40,20,,1.15,,0.35,430,,2.45,25,30.0258,극인화성 ,"열,스파크,화염,고열",,무 ,무 ,무 ,무 ,무 ,유 ,1,X,,,,,,,,,,,,,,,,,,,,,,,,,,,,,,,,1,
㈜에프엔지리서치,충청북도,36.6439575,127.3955483,20140831,,밸브 ,시설 관리 미흡 ,초산가스 ,누출 ,의약용 화합물 및 항생물질 제조업,0,0,,64-19-7,액체 ,무색 ,,산성 ,16.6,117.9,39,,17,6,0.021,25,30.29,25,,1.05,,-0.17,485,,1.056,25,60.0516,인화성 ,"열,스파크,화염,고열",,무 ,무 ,무 ,무 ,무 ,유 ,15,X,,,,,,,,,,,,,,,,,,,,,,,,,,,,,35,,"의약용 화합물,의약용 항생물질",1,
,경상북도 상주시 낙동면 내곡리 498-7 중부내륙고속도로 마산방면 140.8km지점(성주IC-낙동분기점),36.3687216,128.234954,20140901,,도로 ,운송차량사고 ,염산(35%),유출 ,,0,2,,10361-95-2,고체 ,노란색 ,,,,,,,,,,,262,20,,2.15,,,,60,,,232.29,,"열,스파크,화염,고열","가연성물질,연료 ",유,유,유,무,무,무,,X,,,,,,,,,,,,,,,,,,,,,,,,,,,,,,,,,
이화여자대학교,서울특별시,37.5618588,126.9468339,20140903,,실험실 ,작업자 부주의 ,트리메틸아민 ,누출 ,대학교 ,0,0,,75-50-3,액화 가스,무색 ,암모니아 냄새,강염기성 ,-117,3,,,2,11.6,2.12,25,89,30,2,0.6709,,0.16,190,,,,59.1,극인화성 ,"열,스파크,화염,고열",물 ,무 ,무 ,무 ,무 ,무 ,유 ,0.25,X,,,,,,,,,,,,,,,,,,,,,,,,,,,,,,,,2,
이화여자대학교,서울특별시,37.5618588,126.9468339,20140904,,실험실 ,작업자 부주의 ,질산 ,유출 ,대학교 ,0,0,,7697-37-2,액체,무색,자극적인 냄새 ,,-41.6,121,,,,,0.0012,20,50,20,2.2,1.5128,,-0.21,,,0.746,25,63.0119,불연성,"열,스파크,화염,고열","가연성물질,금속,물 ",무,무,무,유,유,유 ,,X,,,,,,,,,,,,,,,,,,,,,,,,,,,,,,,,2,
복영냉동,충청남도,36.0077977,126.6943331,20140910,,배관 ,시설 관리 미흡 ,암모니아 ,누출 ,얼음 제조업,0,0,,7664-41-7,기체 ,무색 ,자극적인 냄새 ,염기성 ,-78,-33.35,132,,15,33.6,9.99,26,54,20,0.59,0.7,-33,0.23,651,382.8,0.255,,17.03,극인화성 ,"열,스파크,화염,고열","물,강산화제,산,할로겐화물,중금속,분리그룹 ",무 ,무 ,무 ,무 ,무 ,유 ,25,X,,,,,,,,,,,,,,,,,,,,,,,,,,,,,,,,1,
한솔테크닉스(주),충청북도,36.6982314,127.4065356,20140911,,공정 설비 ,시설 관리 미흡 ,암모니아수 ,누출 ,그 외 기타 전자부품 제조업,0,8,,1336-21-6,휘발성 액체 ,무색 ,자극적인 냄새 ,,-77,36,,,,,0.47,20,100,25,1.2,0.9,,-2.66,,,,,35.05,비인화성 ,열,"가연성 물질,환원성 물질,
금속",무 ,무 ,무 ,유 ,유 ,유 ,5,X,,,,,,,,,,,,,,,,,,,,,,,,,,,,,250,,그 외 기타 전자부품 ,1,
,전라남도 여수시 해산동 여수생명나무교회 부근 도로,34.800591,127.640243,20140913,,도로 ,운송차량사고 ,염산 ,누출 ,,1,6,,10361-95-2,고체 ,노란색 ,,,,,,,,,,,262,20,,2.15,,,,60,,,232.29,,"열,스파크,화염,고열","가연성물질,연료 ",유,유,유,무,무,무,5000,X,,,,,,,,,,,,,,,,,,,,,,,,,,,,,,,,,
금강얼음,경기도 ,37.5110343,127.1953769,20140919,,사업장 ,작업자 부주의 ,혼합물,유출 ,비알코올음료 및 얼음 제조업,0,0,,,,,,,,,,,,,,,,,,,,,,,,,,,,,,,,,,,7,X,,,,,,,,,,,,,,,,,,,,,,,,,,,,,,,,1,
고등검찰청 ,경상북도 ,36.248647,128.664734,20140925,,창고 ,작업자 부주의 ,염산 ,유출 ,지방검찰청 ,0,0,,10361-95-2,고체 ,노란색 ,,,,,,,,,,,262,20,,2.15,,,,60,,,232.29,,"열,스파크,화염,고열","가연성물질,연료 ",유,유,유,무,무,무,1,X,,,,,,,,,,,,,,,,,,,,,,,,,,,,,,,,1,
,경상북도 포항시 남구 연일읍 오천리 87-17 소재 도로상,36.0002438,129.361876,20140927,0,도로 ,운송차량사고 ,염산 ,유출 ,,0,1,,10361-95-2,고체 ,노란색 ,,,,,,,,,,,262,20,,2.15,,,,60,,,232.29,,"열,스파크,화염,고열","가연성물질,연료 ",유,유,유,무,무,무,10,X,,,,,,,,,,,,,,,,,,,,,,,,,,,,,,,,,
㈜여수제빙,전라남도 ,34.7377246,127.7384432,20140928,,배관 ,시설 관리 미흡 ,암모니아 ,누출 ,식용얼음판매업,0,0,,7664-41-7,기체 ,무색 ,자극적인 냄새 ,염기성 ,-78,-33.35,132,,15,33.6,9.99,26,54,20,0.59,0.7,-33,0.23,651,382.8,0.255,,17.03,극인화성 ,"열,스파크,화염,고열","물,강산화제,산,할로겐화물,중금속,분리그룹 ",무 ,무 ,무 ,무 ,무 ,유 ,,X,,,,,,,,,,,,,,,,,,,,,,,,,,,,,,,,2,
서울대학교 ,서울특별시,37.4593505,126.9511364,20141003,,실험실 ,작업자 부주의 ,불화수소,화상 ,대학교 ,0,1,,7664-39-3,기체 ,무색 ,자극적인 냄새 ,산성 ,-83.53,19.51,,,,,1.2,25,,,0.95,1,,,,,0.256,0,20.01,불연성,열,"물,
분리 그룹",무 ,무 ,무 ,무 ,무 ,유 ,,X,,,,,,,,,,,,,,,,,,,,,,,,,,,,,,,,4,
폐수처리장,경기도 ,36.9746676,127.2613197,20141011,,폐수처리장,작업자 부주의 ,메탄올 ,화재 ,그 외 기타 특수 목적용 기계 제조업,0,1,,67-56-1,액체 ,무색 ,톡 쏘는 냄새 ,극염기성 ,-97.6,65,11.11,,50,6,0.17,25,100,25,1.11,0.79,,-0.77,440,,0.544,25,32.04,고인화성 ,"열,스파크,화염,고열",강산화제,무 ,무 ,무 ,무 ,무 ,유,,X,,,,,,,,,,,,,,,,,,,,,,,,,,,,,,,,,
"㈜덕산약품공업
",경기도 ,37.3189222,126.7539705,20141012,,혼합기 ,시설 관리 미흡 ,초산 ,누출 ,그 외 기타 분류 안된 화학제품 제조업,0,0,,64-19-7,액체 ,무색 ,,산성 ,16.6,117.9,39,,17,6,0.021,25,30.29,25,,1.05,,-0.17,485,,1.056,25,60.0516,인화성 ,"열,스파크,화염,고열",,무 ,무 ,무 ,무 ,무 ,유 ,,X,,,,,,,,,,,,,,,,,,,,,,,,,,,,,132,,그 외 기타 분류 안된 화학제품,1,
,충청북도 영동군 경부고속도로 하행선 영동IC부근,36.2656233,127.76343,20141016,,도로 ,운송차량사고 ,염산(10%),유출 ,,0,0,,10361-95-2,고체 ,노란색 ,,,,,,,,,,,262,20,,2.15,,,,60,,,232.29,,"열,스파크,화염,고열","가연성물질,연료 ",유,유,유,무,무,무,450,X,,,,,,,,,,,,,,,,,,,,,,,,,,,,,,,,,
"LG
석유화학 ",전라남도 ,34.8338487,127.6800149,20141023,,액위 측정기 ,작업자 부주의 ,에틸렌 ,누출 ,석유화학계 기초 화학물질 제조업,0,0,,74-85-1,기체,무색,달콤한 냄새,,-169.2,-104,-136,,36,2.7,79.9,15,0.0131,25,0.98,,,1.13,490,,0.01,,28.05,인화성,"열,스파크,화염,고열",,유,유,유,무 ,무 ,무,50,X,,,,,,,,,,,,,,,,,,,,,,,,,,,,,1,,,,
지노켐,대전광역시 대덕구 산업단지로 87번길 116(신일동 1693-10) 지노켐,36.431,127.407,20141028,,실험실 ,작업자 부주의 ,과산화수소 35%,폭발 ,로켓추진제 제조 업체 ,0,4,,7722-84-1,액체,무색 ,무향 ,약산성 ,-11,141,,,,,0.0026,25,100,25,1,1.4425,25,-1.36,,,1.245,,34.01,강산화제 ,"열,스파크,화염,마찰,오염 ","의복,가연성물질,물,연료 ",무 ,무 ,무 ,무 ,무 ,유 ,,X,,,,,,,,,,,,,,,,,,,,,,,,,,,,,,,,1,
국립경찰병원 ,서울특별시,37.4960568,127.1234223,20141029,,폐 저장 설비 ,작업자 부주의 ,질산65%,유출 ,군사병원 ,0,0,,7697-37-2,액체,무색,자극적인 냄새 ,,-41.6,121,,,,,0.0012,20,50,20,2.2,1.5128,,-0.21,,,0.746,25,63.0119,불연성,"열,스파크,화염,고열","가연성물질,금속,물 ",무,무,무,유,유,유 ,1,X,,,,,,,,,,,,,,,,,,,,,,,,,,,,,,,,1,
봉담고등학교 ,경기도 ,37.2173707,126.9539502,20141031,,실험실 ,작업자 부주의 ,메틸 에틸 케톤 퍼옥사이드,폭발 ,일반 고등학교,0,5,,1338-23-4,액체 ,무색 ,톡 쏘는 냄새 ,,110,284,87.78,,,,8.32E-05,25,63,25,,1.135,,,,,,,176.2,,"열,스파크,화염,고열",가연성 물질,무 ,무 ,무 ,무 ,무 ,유 ,,X,,,,,,,,,,,,,,,,,,,,,,,,,,,,,,,,1,
,경상북도 봉화군 석포면 석포3리 석포역 인근 도로상,37.045276,129.061108,20141105,,도로 ,운송차량사고 ,황산(95%),유출 ,,0,0,낙동강으로 200∼300kg 유출 ,7664-93-9,액체 ,무색 ,무향 ,강산성 ,10.4~10.94,337,,,,,0.0059,20,,,1.81,1.8,,-2.2,,340,21,,98.079,,"열,스파크,화염 ","가연성물질,금속,물",무 ,무 ,무 ,무 ,무 ,유 ,2000,X,,,,,,,,,,,,,,,,,,,,,,,,,,,,,,,,,
대광화학,부산광역시,35.1345857,128.9718469,20141107,,저장 설비 ,작업자 부주의 ,암모니아수,유출 ,기타 화학물질 및 화학제품 도매업,0,0,,1336-21-6,휘발성 액체 ,무색 ,자극적인 냄새 ,,-77,36,,,,,0.47,20,100,25,1.2,0.9,,-2.66,,,,,35.05,비인화성 ,열,"가연성 물질,환원성 물질,
금속",무 ,무 ,무 ,유 ,유 ,유 ,0.5,X,,,,,,,,,,,,,,,,,,,,,,,,,,,,,8,,"기타 화학 물질, 기타 화학제품",2,
평화발레오,경상북도,35.7957641,128.3757527,20141118,,저장 설비 ,작업자 부주의 ,혼합물 ,증기 흡입 ,그 외 자동차용 신품 부품 제조업,0,1,,,,,,,,,,,,,,,,,,,,,,,,,,,,,,,,,,,,X,,,,,,,,,,,,,,,,,,,,,,,,,,,,,138,,그 외 자동차용 신품 부품,1,
,대구광역시 서구 상리동 산247-1번지 중앙고속도로 금호JC→서대구광역시IC 100미터 전방 도로상,35.8843552,128.5271926,20141125,,도로 ,운송차량사고 ,암모니아수 ,유출 ,,0,0,,1336-21-6,휘발성 액체 ,무색 ,자극적인 냄새 ,,-77,36,,,,,0.47,20,100,25,1.2,0.9,,-2.66,,,,,35.05,비인화성 ,열,"가연성 물질,환원성 물질,
금속",무 ,무 ,무 ,유 ,유 ,유 ,,X,,,,,,,,,,,,,,,,,,,,,,,,,,,,,,,,,
,경기도 안산 단원구 원곡동 안산역 앞 도로상,37.3271495,126.7887941,20141129,,도로 ,운송차량사고 ,질산 ,유출 ,,0,0,,7697-37-2,액체,무색,자극적인 냄새 ,,-41.6,121,,,,,0.0012,20,50,20,2.2,1.5128,,-0.21,,,0.746,25,63.0119,불연성,"열,스파크,화염,고열","가연성물질,금속,물 ",무,무,무,유,유,유 ,,X,,,,,,,,,,,,,,,,,,,,,,,,,,,,,,,,,
강구수협 ,경상북도,37.5404656,127.2161567,20141206,,저장 설비 ,시설 관리 미흡 ,암모니아 ,누출 ,도시금융사업,0,0,,7664-41-7,기체 ,무색 ,자극적인 냄새 ,염기성 ,-78,-33.35,132,,15,33.6,9.99,26,54,20,0.59,0.7,-33,0.23,651,382.8,0.255,,17.03,극인화성 ,"열,스파크,화염,고열","물,강산화제,산,할로겐화물,중금속,분리그룹 ",무 ,무 ,무 ,무 ,무 ,유 ,2,X,,,,,,,,,,,,,,,,,,,,,,,,,,,,,,,,1,
영남도금 ,경상북도 ,35.8657002,128.539513,20141210,,저장 설비 ,작업자 부주의 ,차아염소산나트륨 용액 ,가스 발생 ,도금업,0,0,,7681-52-9,액체,노란색,독특한 냄새 ,염기성 ,-20,40,,,,,0.018,20,29.3,0,0.7,1.1,,,,,,,74.4,비인화성 ,열 ,"가연성물질,환원성물질,금속 ",무 ,무 ,무 ,유 ,유 ,유 ,,X,,,,,,,,,,,,,,,,,,,,,,,,,,,,,4,,,1,
,서울특별시시 강서구 화곡8동 980-27,37.5342772,126.8486976,20141212,,도로 ,작업자 부주의 ,황산 ,누출 ,,0,0,,7664-93-9,액체 ,무색 ,무향 ,강산성 ,10.4~10.94,337,,,,,0.0059,20,,,1.81,1.8,,-2.2,,340,21,,98.079,,"열,스파크,화염 ","가연성물질,금속,물",무 ,무 ,무 ,무 ,무 ,유 ,2,X,,,,,,,,,,,,,,,,,,,,,,,,,,,,,,,,,
한성냉동,경상남도 ,35.214216,128.5995583,20141215,,저장 설비 ,작업자 부주의 ,암모니아수,유출 ,날붙이 제조업,0,0,,1336-21-6,휘발성 액체 ,무색 ,자극적인 냄새 ,,-77,36,,,,,0.47,20,100,25,1.2,0.9,,-2.66,,,,,35.05,비인화성 ,열,"가연성 물질,환원성 물질,
금속",무 ,무 ,무 ,유 ,유 ,유 ,400,X,,,,,,,,,,,,,,,,,,,,,,,,,,,,,,,,2,
KOC(주) ,울산광역시,35.5213262,129.0783048,20141215,,배관,작업자 부주의 ,염소가스 ,누출 ,기초 무기 화학물질 제조업,0,0,,7782-50-5,액체 ,노란색,자극적인 냄새 ,강염기성,-101.05,-34.05,,,,,7.67,25,0.741,20,,1.424,15,0.85,,,0.013,20,70.905,비연소성,"공기,습한공기
,열","가연성물질, 환원성 물질
,다수의 유기화합물, 암모니아, 수소, 파편화된 금속",무,무,무,무,무,유 ,1,X,,,,,,,,,,,,,,,,,,,,,,,,,,,,,62,,기초 무기화학 물질,1,
,울산광역시,35.5193,129.239078,201910,8:15,저장 설비 ,작업자 부주의 ,펜탄 ,폭발 ,,0,2,,109-66-0,액체 ,무색 ,페인트 냄새 ,,-129.67,36.06,-40,28.6,7.8,1.5,0.53,18.5,0.00385,25,2.48,0.63,,3.45,260,,,,72.15,고인화성 ,"열,스파크,화염,고열",,유 ,유 ,유 ,무 ,무 ,무 ,,O,Y,Y,N,N,N,Y,N,N,N,Y,Y,N,N,N,N,N,N,Y,N,N,N,N,N,N,N,N,N,N,,,,,
,경상남도 ,35.259787,128.664734,201708,,배관 ,작업자 부주의 ,에탄올 ,폭발 ,,0,2,,64-17-5,액체,무색,"와인,위스키 냄새",중성 ,-114.1,78.5,13,,27.7,3.1,0.057,20,78.9,20,1.6,0.79,,-0.32,400,,1.074,,46.0684,,"열,스파크,화염,고열",,무 ,무 ,무 ,무 ,무 ,유 ,,X,,,,,,,,,,,,,,,,,,,,,,,,,,,,,,,,,
,인천광역시,37.469221,126.573234,201408,,저장 설비 ,시설 관리 미흡 ,,폭발 ,,0,1,,,액체,무색,"와인,위스키 냄새",중성 ,-114.1,78.5,13,,27.7,3.1,0.057,20,78.9,20,1.6,0.79,,-0.32,400,,1.074,,46.0684,,"열,스파크,화염,고열",,무 ,무 ,무 ,무 ,무 ,유 ,,X,,,,,,,,,,,,,,,,,,,,,,,,,,,,,,,,,
,전라남도 ,34.8194,126.893113,201906,,배관 ,작업자 부주의 ,수소 ,폭발 ,,1,1,,1333-74-0,기체 ,무색 ,무향 ,,-259,-253,,,75,4,1631.58,25,0.000162,21,0.07,,,0.45,535.5,,0.0256,26.8,2,극인화성 ,"열,스파크,화염,고열",,유 ,유 ,유 ,무 ,무 ,무 ,,X,,,,,,,,,,,,,,,,,,,,,,,,,,,,,,,,,
,경기도 ,37.567167,127.190292,201502,,폐 저장 설비 ,작업자 부주의 ,,폭발 ,,1,0,,,,,,,,,,,,,,,,,,,,,,,,,,,,,,,,,,,,X,,,,,,,,,,,,,,,,,,,,,,,,,,,,,,,,,
,울산광역시,35.5193,127.190292,201912,10:08,저장 설비 ,작업자 부주의 ,과산화수소 ,누출 ,,0,1,,7722-84-1,액체,무색 ,무향 ,약산성 ,-11,141,,,,,0.0026,25,100,25,1,1.4425,25,-1.36,,,1.245,,34.01,강산화제 ,"열,스파크,화염,마찰,오염 ","의복,가연성물질,물,연료 ",무 ,무 ,무 ,무 ,무 ,유 ,8528,O,Y,Y,N,N,N,N,N,N,N,N,N,N,N,N,N,N,N,N,N,N,N,N,Y,N,N,N,N,N,,,,,
,경상북도,36.248647,128.664734,201209,,이송 밸브 ,작업자 부주의 ,불화수소,누출 ,,5,0,,7664-39-3,기체 ,무색 ,자극적인 냄새 ,산성 ,-83.53,19.51,,,,,1.2,25,,,0.95,1,,,,,0.256,0,20.01,불연성,열,"물,
분리 그룹",무 ,무 ,무 ,무 ,무 ,유 ,,X,,,,,,,,,,,,,,,,,,,,,,,,,,,,,,,,,
,울산광역시,35.5193,127.190292,201805,,하역장 ,시설 관리 미흡 ,염소가스 ,누출 ,,0,28,,7782-50-5,액체 ,노란색,자극적인 냄새 ,강염기성,-101.05,-34.05,,,,,7.67,25,0.741,20,,1.424,15,0.85,,,0.013,20,70.905,비연소성,"공기,습한공기
,열","가연성물질, 환원성 물질
,다수의 유기화합물, 암모니아, 수소, 파편화된 금속",무,무,무,무,무,유 ,,X,,,,,,,,,,,,,,,,,,,,,,,,,,,,,,,,,
,전라남도 ,34.8194,126.893113,201812,,열 교환기 ,시설 관리 미흡 ,에틸렌 ,누출 ,,0,1,,74-85-1,기체,무색,달콤한 냄새,,-169.2,-104,-136,,36,2.7,79.9,15,0.0131,25,0.98,,,1.13,490,,0.01,,28.05,인화성,"열,스파크,화염,고열",,유,유,유,무 ,무 ,무,,O,Y,Y,N,Y,N,N,N,Y,Y,N,N,N,N,N,N,N,N,N,N,N,N,N,N,N,N,N,N,Y,,,,,
,전라북도,35.716705,127.144185,201807,13:23,밸브 ,시설 관리 미흡 ,황린 ,누출 ,,0,0,,12185-10-3,결정성 고체 ,황색,,,44.1,280,,,,,3.45E-05,20,0.0003,20,4.77,1.83,,,30,,0.76,,123.896,극인화성 ,"열,스파크,화염,고열,공기","공기,금속 ",무 ,무 ,무 ,무 ,무 ,유 ,,O,Y,N,N,N,Y,N,Y,N,N,N,N,N,N,N,N,N,N,N,N,N,N,N,Y,N,N,N,N,Y,,,,,
,충청남도,36.557229,126.779757,201901,,창고 ,작업자 부주의 ,황린 ,누출 ,,0,0,,12185-10-3,결정성 고체 ,황색,,,44.1,280,,,,,3.45E-05,20,0.0003,20,4.77,1.83,,,30,,0.76,,123.896,극인화성 ,"열,스파크,화염,고열,공기","공기,금속 ",무 ,무 ,무 ,무 ,무 ,유 ,,X,,,,,,,,,,,,,,,,,,,,,,,,,,,,,,,,,
,전라남도 ,34.8194,126.893113,200303,,실험실 ,작업자 부주의 ,알킬알미늄(알킬디메틸벤질암모늄클로라이드),누출 ,,0,2,,8001-54-5,고체 ,흰색 ,독특한 냄새 ,염기성 ,,,,,,,,,,,,,,,,,,,170.66,비인화성 ,열,"가연성 물질,환원성 물질,
금속",무 ,무 ,무 ,유 ,유 ,유 ,,X,,,,,,,,,,,,,,,,,,,,,,,,,,,,,,,,,
,충청남도,36.557229,126.779757,201905,,저장 설비 ,시설 관리 미흡 ,스티렌,누출 ,,0,0,,100-42-5,,무색 ,달콤한 냄새,,-30.6,145,31,,6.8,0.9,0.0066,20,0.031,25,3.6,0.91,,2.95,490,-4668.78,0.696,25,104.14,인화성 ,"열,스파크,화염,고열",,무,무,무,무,무,유 ,,O,Y,Y,N,N,N,N,Y,Y,Y,N,N,N,N,N,N,N,N,N,N,N,N,N,N,N,N,N,N,N,,,,,
,충청북도,36.628503,127.929344,201908,,반응기 ,작업자 부주의 ,"Octane-1,2-diol",화재 ,,1,8,, 1117-86-8,고체 ,흰색 ,,,36,243,138,,,,7.89E-06,25,0.2933,,,,,1.67,310,,,,146.23,비인화성 ,"열,스파크,화염 ","가연성 물질, 환원성 물질",유 ,무 ,유 ,유 ,유 ,유 ,,O,Y,Y,N,N,N,N,Y,N,N,N,N,N,N,N,Y,N,N,N,N,N,N,N,N,N,Y,N,N,Y,,,,,
,경기도 ,37.567167,127.190292,201404,,생산 설비 ,작업자 부주의 ,,폭발 ,,1,5,,,,,,,,,,,,,,,,,,,,,,,,,,,,,,,,,,,,X,,,,,,,,,,,,,,,,,,,,,,,,,,,,,,,,,
,충청남도,36.557229,126.779757,201408,,생산 설비 ,작업자 부주의 ,무수초산,누출 ,,0,0,,108-24-7,액체 ,무색 ,,,-73,139,49,,2.7,10.3,0.0049,20,120,20,3.5,1.08,,-0.27,316,,0.843,25,102.09,인화성 ,"열,스파크,화염,고열","가연성 물질,
금속,
물",무 ,무 ,무 ,무 ,무 ,유 ,,X,,,,,,,,,,,,,,,,,,,,,,,,,,,,,,,,,
,충청북도,36.628503,127.929344,201905,,반응기 ,작업자 부주의 ,,화재 ,,3,1,,,,,,,,,,,,,,,,,,,,,,,,,,,,,,,,,,,,X,,,,,,,,,,,,,,,,,,,,,,,,,,,,,,,,,
,경기도 ,37.567167,127.190292,202003,15:10,여과 설비 ,작업자 부주의 ,헵탄,화재 ,,0,1,,142-82-5,액체 ,무색 ,휘발유 냄새,,-91,98,-4,,6.7,1.1,0.045,20,0.00024,25,3.46,0.69,,4.66,285,,,,100.201,고인화성 ,"열,스파크,화염,고열",,무 ,무 ,무 ,무 ,무 ,유 ,,O,Y,N,N,N,N,N,N,N,N,N,N,N,N,N,Y,Y,N,Y,N,N,N,Y,Y,N,N,Y,N,Y,,,,,
,강원도 ,37.555837,128.209315,201811,,여과 설비 ,작업자 부주의 ,혼합물 ,화재 ,,0,1,,,,,,,,,,,,,,,,,,,,,,,,,,,,,,,,,,,,X,,,,,,,,,,,,,,,,,,,,,,,,,,,,,,,,,
,경기도 ,37.567167,127.190292,201901,,저장 설비 ,작업자 부주의 ,,화재 ,,0,0,,,,,,,,,,,,,,,,,,,,,,,,,,,,,,,,,,,,X,,,,,,,,,,,,,,,,,,,,,,,,,,,,,,,,,
삼양이노켐(주),전라북도,35.9680267,126.5414159,20140418,9:33,운송차량 ,시설 결함,"비스페놀A
",폭발,기초 화학물질 제조업 ,0,1,,1980-05-07,,흰색,온화한 페놀 냄새,중성 ,160,360.5,227,,,,5.26E-11,25,0.03,25,1.2,1.195,25,3.32,540,,,,228.287,비인화성 ,"열,스파크,화염 ","가연성 물질, 환원성 물질",무,무,무,유 ,유 ,유 ,,X,,,,,,,,,,,,,,,,,,,,,,,,,,,,,47,,기초 화학물질,2,
제이아이테크,경기도 ,37.1514603,126.9652083,20150520,9:46,여과 설비 ,안전기준 미준수,헥산,폭발,기초 화학물질 제조업 ,0,3,,110-54-3,액체 ,무색 ,휘발유 냄새,,-95.35,68.73,-22,,7.5,1.1,0.2,25,0.0013,20,2.97,0.66,,3.9,225,,0.326,20,86.18,고인화성 ,"열,스파크,화염,고열",,유 ,유 ,유 ,무 ,무 ,무 ,40,X,,,,,,,,,,,,,,,,,,,,,,,,,,,,,55,테크라클로로 실리콘,기초 화학물질,1,
OCI(주)군산,전라북도,35.979616,126.6628519,20150622,16:03,밸브 ,시설 결함,실리콘테트라염화물,누출,기초 화학물질 제조업 ,0,7,,10026-04-7,액체 ,무색 ,자극적인 냄새 ,,-68,57,,,,,0.31,25,,,5.9,1.48,,1.77,,,0.597,20,169.89,비인화성 ,열,"금속,
물",무 ,무 ,무 ,유 ,유 ,유 ,,X,,,,,,,,,,,,,,,,,,,,,,,,,,,,,1465,,기초 화학물질,5,
대송화물,경기도 ,37.3563608,126.718799,20160311,7:25,운송차량 ,운송차량사고 ,크롬산스트론티움(스트론티움크로메이트),누출,일반 화물자동차 운송업,0,0,,7789-06-02,분말 고체 ,노란색,무향 ,염기성 ,,,,,,,,,,,3.9,3.89,,,,500,,,,비인화성 ,"열,스파크,화염 ","가연성물질,환원성물질",유 ,유 ,유 ,유 ,유 ,무 ,500,X,,,,,,,,,,,,,,,,,,,,,,,,,,,,,,,,1,
은진캐미칼,경기도 ,37.4465361,126.8126381,20160329,8:30,운송차량 ,안전기준 미준수,질산(68%),누출,기초 화학물질 제조업 ,0,0,,7697-37-2,액체,무색,자극적인 냄새 ,,-41.6,121,,,,,0.0012,20,50,20,2.2,1.5128,,-0.21,,,0.746,25,63.0119,불연성,"열,스파크,화염,고열","가연성물질,금속,물 ",무,무,무,유,유,유 ,,X,,,,,,,,,,,,,,,,,,,,,,,,,,,,,35,질산 칼륨,기초 무기화학 물질,1,
동백통운,전라북도 군산시 개정면 통사리 233-1  ,35.9511931,126.7996515,20160729,18:05,운송차량 ,운송차량사고 ,염산(35%),누출,운송업 ,0,0,,10361-95-2,고체 ,노란색 ,,,,,,,,,,,262,20,,2.15,,,,60,,,232.29,,"열,스파크,화염,고열","가연성물질,연료 ",유,유,유,무,무,무,50,X,,,,,,,,,,,,,,,,,,,,,,,,,,,,,,,,4,
OCI(주)군산,전라북도,35.979616,126.6628519,20170426,8:19,운송차량,운송차량사고 ,염산(36%),누출,기초 화학물질 제조업 ,0,0,,10361-95-2,고체 ,노란색 ,,,,,,,,,,,262,20,,2.15,,,,60,,,232.29,,"열,스파크,화염,고열","가연성물질,연료 ",유,유,유,무,무,무,20,X,,,,,,,,,,,,,,,,,,,,,,,,,,,,,1465,,기초 무기화학 물질,5,
한농화성,경기도 ,37.3943154,126.9734601,20170517,13:47,저장 설비 ,시설 결함,메틸아크릴레이트,누출,기초 화학물질 제조업 ,0,0,,96-33-3,휘발성 액체,무색 ,매캐한 냄새 ,,-76.5,80.5,-7.78,,25,2.8,0.12,25,1.8,20,2.97,0.9535,20,0.8,468,,0.482,,86.09,고인화성 ,"열,스파크,화염,고열",,무 ,무 ,무 ,무 ,무 ,유 ,1,X,,,,,,,,,,,,,,,,,,,,,,,,,,,,,64,톨루엔,기초 무기화학 물질,1,
OCI(주)군산,전라북도,35.979616,126.6628519,20170624,11:50,제조 설비 ,시설 결함,사염화규소,누출,기초 화학물질 제조업 ,0,0,,10026-04-7,액체 ,무색,,,-68,57,,,,,0.31,25,,,5.9,1.48,,1.77,,,0.597,20,169.89,비인화성 ,열,"금속,
물",무 ,무 ,무 ,유 ,유 ,유 ,2,X,,,,,,,,,,,,,,,,,,,,,,,,,,,,,1465,,기초 무기화학 물질,5,
백광산업,경기도 ,36.9620954,127.2422556,20170731,17:45,저장 설비 ,시설 결함,차아염소산나트륨,폭발,기초 화학물질 제조업 ,0,0,45360kg 하수 및 우수로로 유출 ,7681-52-9,액체,노란색,독특한 냄새 ,염기성 ,-20,40,,,,,0.018,20,29.3,0,0.7,1.1,,,,,,,74.4,비인화성 ,열 ,"가연성물질,환원성물질,금속 ",무 ,무 ,무 ,유 ,유 ,유 ,317515,X,,,,,,,,,,,,,,,,,,,,,,,,,,,,,,황산,,1,
원광냉동냉장식품,전라북도 군산시 서수면 동군산로 1075-60(관원리 492-4)(주)원광냉동냉장식품,36.0103051,126.8736885,20180620,21:34,저장 설비 ,시설 결함,암모니아 ,누출,창고업,0,0,,7664-41-7,기체 ,무색 ,자극적인 냄새 ,염기성 ,-78,-33.35,132,,15,33.6,9.99,26,54,20,0.59,0.7,-33,0.23,651,382.8,0.255,,17.03,극인화성 ,"열,스파크,화염,고열","물,강산화제,산,할로겐화물,중금속,분리그룹 ",무 ,무 ,무 ,무 ,무 ,유 ,18,X,,,,,,,,,,,,,,,,,,,,,,,,,,,,,,,,2,
원광냉동냉장식품,전라북도 군산시 서수면 동군산로 1075-60(관원리 492-4)(주)원광냉동냉장식품,36.0103051,126.8736885,20180728,17:49,펌프 ,시설 결함,암모니아 ,누출,창고업,0,1,,7664-41-7,기체 ,무색 ,자극적인 냄새 ,염기성 ,-78,-33.35,132,,15,33.6,9.99,26,54,20,0.59,0.7,-33,0.23,651,382.8,0.255,,17.03,극인화성 ,"열,스파크,화염,고열","물,강산화제,산,할로겐화물,중금속,분리그룹 ",무 ,무 ,무 ,무 ,무 ,유 ,,X,,,,,,,,,,,,,,,,,,,,,,,,,,,,,,,,2,
OCI(주)군산,전라북도 군산시 외항로 82(소룡동 233)OCI(주) 군산공장,35.9638112,126.5481328,20181121,10:34,배관 ,시설 결함,사염화규소,누출,기초 화학물질 제조업 ,0,0,,10026-04-7,액체 ,무색,,,-68,57,,,,,0.31,25,,,5.9,1.48,,1.77,,,0.597,20,169.89,비인화성 ,열,"금속,
물",무 ,무 ,무 ,유 ,유 ,유 ,10,X,,,,,,,,,,,,,,,,,,,,,,,,,,,,,1465,,기초 무기화학 물질,5,
㈜SH에너지화학,경기도 ,35.979616,126.6628519,20200306,11:35,배관 ,안전기준 미준수,펜탄,폭발,기초 화학물질 제조업 ,1,2,,109-66-0,액체 ,무색 ,페인트 냄새 ,,-129.67,36.06,-40,28.6,7.8,1.5,0.53,18.5,0.00385,25,2.48,0.63,,3.45,260,,,,72.15,고인화성 ,"열,스파크,화염,고열",,유 ,유 ,유 ,무 ,무 ,무 ,,X,,,,,,,,,,,,,,,,,,,,,,,,,,,,,120,,기초 무기화학 물질,1,
대상(주)바이오,전라북도 군산시 외항1길 208,35.9755245,126.6542627,20210111,14:30,배관 ,안전기준 미준수,염산(35%),누출,식품제조업 ,0,2,,10361-95-2,고체 ,노란색 ,,,,,,,,,,,262,20,,2.15,,,,60,,,232.29,,"열,스파크,화염,고열","가연성물질,연료 ",유,유,유,무,무,무,2,X,,,,,,,,,,,,,,,,,,,,,,,,,,,,,,황산,,,
나투라미디어,전북 군산시 자유무역1길 97,35.9647901,126.5414181,20201023,12:15,제조 설비 ,안전기준 미준수,메틸에틸케톤,화재,필림제조업 ,0,3,,78-93-3,액체 ,무색 ,박하 및 달콤한 냄새 ,중성 ,-86,79.59,-9,2.7,11.5,1.8,0.12,25,29,20,2.41,0.8,,0.29,505,,0.4,25,72.11,고인화성 ,"열,스파크,화염,고열",,무 ,무 ,무 ,무 ,무 ,유 ,,X,,,,,,,,,,,,,,,,,,,,,,,,,,,,,77,,필림,1,
삼양이노캠(주),"전라북도 군산시 오식도동 812-3, 군산해상교통관제센터 앞 도로상",35.970512,126.5504516,20210407,1:20,배관 ,시설 결함,페놀,누출,기초 화학물질 제조업 ,0,0,,108-95-2,고체,무색,특징있는 냄새,약산성 ,43,182,79,,10,1.36,0.000197,25,8.4,20,,1.07,,1.47,715,,1.784,75,94.1124,,"열,스파크,화염 ",금속 ,무 ,무 ,무 ,무 ,무 ,유 ,50,X,,,,,,,,,,,,,,,,,,,,,,,,,,,,,47,,기초 무기화학 물질,2,
㈜골드앤에스,전라북도 군산시 산단동서로 44-30 ,35.9536313,126.5786715,20210607,15:46,사업장 ,안전기준 미준수,사염화규소,누출,기초 화학물질 제조업 ,0,0,,10026-04-7,액체 ,무색,,,-68,57,,,,,0.31,25,,,5.9,1.48,,1.77,,,0.597,20,169.89,비인화성 ,열,"금속,
물",무 ,무 ,무 ,유 ,유 ,유 ,30,X,,,,,,,,,,,,,,,,,,,,,,,,,,,,,,,,,
한정문류,"전라북도 군산시 외항로 82, OCI㈜ 군산공장 후문 앞 도로상",35.9799392,126.6557605,20210729,7:50,운송 차량 ,운송차량사고 ,염산(35%),누출,운반업,0,0,,10361-95-2,고체 ,노란색 ,,,,,,,,,,,262,20,,2.15,,,,60,,,232.29,,"열,스파크,화염,고열","가연성물질,연료 ",유,유,유,무,무,무,10,X,,,,,,,,,,,,,,,,,,,,,,,,,,,,,,,,5,
태광정밀화학(주),경기도 ,37.301606,127.0662338,220530,11:54,저장 설비 ,시설 결함,메타크릴 산,누출,기초 화학물질 제조업 ,0,0,,79-41-4,액체 ,무색 ,자극적인 냄새 ,,16,159~163,77.2,,8.8,1.6,0.0013,25,8.9,20,2.97,1.0153,20,0.93,,,,,86.09,,"열,스파크,화염 ",금속,무 ,무 ,무 ,무 ,무 ,유 ,4536,X,,,,,,,,,,,,,,,,,,,,,,,,,,,,,102,황산,기초 무기화학 물질,1,
,전라북도 군산시 외항로 82 ,35.9638112,126.5481328,20221201,6:04,배관 ,시설 결함,"트리클로로
실란(트라이클로로실레인)",누출,기초 화학물질 제조업 ,0,0,,10025-78-2,휘발성 발연 액체 ,무색 ,자극적인 냄새 ,산성 ,-127,32,-27,,90.5,1.2,0.78,25,,,4.7,1.34,,1.46,185,,0.316,25,135.45,극인화성 ,"열,스파크,화염,고열,습기","물,습기 ",유 ,유 ,유 ,무 ,무 ,무 ,88,X,,,,,,,,,,,,,,,,,,,,,,,,,,,,,,,,,
HS하이테크,경기도 ,37.3269131,126.7259926,20140821,17:00,폐액 처리장 ,화학반응,폐혼합물 ,흄발생,반도체 제조용 기계 제조업,0,1,,,,,,,,,,,,,,,,,,,,,,,,,,,,,,,,,,,,X,,,,,,,,,,,,,,,,,,,,,,,,,,,,,,,,,
매탄고등학교,경기도 ,37.2625068,127.0446724,20150908,15:30,실험실 ,작업자 부주의 ,수은,유출,일반 고등학교,0,0,,7439-97-6,고체, 은색 ,무향 ,,-38.48,356.75,,,,,2.54E-11,20,,,6.93,13.5,,0.62,,,1.55,20,200.59,비인화성,열,"금속, 산",유 ,무 ,유 ,무 ,무 ,무 ,0.048,X,,,,,,,,,,,,,,,,,,,,,,,,,,,,,,,,1,
수일공업,경기도 ,37.2480521,127.0482631,20170330,15:30,배출장 ,시설 관리 미흡 ,크롬,유출,기타 1차 비철금속 제조업,0,0,사고부지 및 인근 지역 토양 오염 ,7440-47-3,고체 ,은색 ,무향 ,,1863,2672,,,,,1,2482,,,7.19,7.14,20,0.23,,,,,51.9961,비인화성 ,"열,스파크,화염 ","가연성물질,환원성물질 ",유 ,유 ,유 ,유 ,유 ,무 ,,X,,,,,,,,,,,,,,,,,,,,,,,,,,,,,6,,기타 1차 비철금속,1,
,경기도 수원시 장안구 이목동 349-21 오리뜰 삼거리 인근 도로,37.30615,126.9818931,20171103,19:00,운송 차량 ,시설 관리 미흡 ,염산,유출,,0,0,,10361-95-2,고체 ,노란색 ,,,,,,,,,,,262,20,,2.15,,,,60,,,232.29,,"열,스파크,화염,고열","가연성물질,연료 ",유,유,유,무,무,무,15,X,,,,,,,,,,,,,,,,,,,,,,,,,,,,,,,,,
호매실중학교,경기도 ,37.2681859,126.9554992,20190717,10:00,실험실 ,시설 관리 미흡 ,수은,유출,중학교 ,0,0,,7439-97-6,고체, 은색 ,무향 ,,-38.48,356.75,,,,,2.54E-11,20,,,6.93,13.5,,0.62,,,1.55,20,200.59,비인화성,열,"금속, 산",유 ,무 ,유 ,무 ,무 ,무 ,,X,,,,,,,,,,,,,,,,,,,,,,,,,,,,,,,,,
"수원정보과학
고등학교",경기도 ,37.2758494,127.049804,20191011,10:00,실험실 ,작업자 부주의 ,포르말린(포름알데히드),유출,상업 및 정보산업 특성화 고등학교,0,8,,50-00-0,액체 ,무색 ,,산성 ,-92,-19~-21,80.5,,73,7,0.0013,20,40,20,,1.15,,0.35,430,,2.45,25,30.0258,극인화성 ,"열,스파크,화염,고열",,무 ,무 ,무 ,무 ,무 ,유 ,0.01,X,,,,,,,,,,,,,,,,,,,,,,,,,,,,,,,,,
온수골온천,경기도 ,37.2502613,127.0347027,20191228,23:20,가게 ,작업자 부주의 ,암모니아 ,유출,욕탕업 ,0,10,,7664-41-7,기체 ,무색 ,자극적인 냄새 ,염기성 ,-78,-33.35,132,,15,33.6,9.99,26,54,20,0.59,0.7,-33,0.23,651,382.8,0.255,,17.03,극인화성 ,"열,스파크,화염,고열","물,강산화제,산,할로겐화물,중금속,분리그룹 ",무 ,무 ,무 ,무 ,무 ,유 ,18,X,,,,,,,,,,,,,,,,,,,,,,,,,,,,,,,,,
삼성전자,경기도 ,37.2570823,127.0521345,20201119,10:50,증착 설비 ,시설 관리 미흡 ,암모니아 ,유출,이동전화기 제조업,0,2,,7664-41-7,기체 ,무색 ,자극적인 냄새 ,염기성 ,-78,-33.35,132,,15,33.6,9.99,26,54,20,0.59,0.7,-33,0.23,651,382.8,0.255,,17.03,극인화성 ,"열,스파크,화염,고열","물,강산화제,산,할로겐화물,중금속,분리그룹 ",무 ,무 ,무 ,무 ,무 ,유 ,12.6,X,,,,,,,,,,,,,,,,,,,,,,,,,,,,,29924,,이동전화기,1,
태준제약,경기도 ,37.1479776,127.1372713,20211027,17:00,실험실 ,작업자 부주의 ,폐산 ,누출,의약용 화합물 및 항생물질 제조업,0,0,,,,,,,,,,,,,,,,,,,,,,,,,,,,,,,,,,,1.5,X,,,,,,,,,,,,,,,,,,,,,,,,,,,,,160,,"의약용 화합물,의약용 항생물질",1,
가정집,경기도 ,37.567167,127.190292,20221222,15:50,가정집 ,작업자 부주의 ,수은,유출,,0,0,,7439-97-6,고체, 은색 ,무향 ,,-38.48,356.75,,,,,2.54E-11,20,,,6.93,13.5,,0.62,,,1.55,20,200.59,비인화성,열,"금속, 산",유 ,무 ,유 ,무 ,무 ,무 ,0.03,X,,,,,,,,,,,,,,,,,,,,,,,,,,,,,,,,,
㈜남강,경기도 ,37.5251751,126.7714631,20230115,13:00,사업장 ,작업자 부주의 ,포름산(개미산),유출,기타 통신 판매업,0,0,,64-18-6,액체 ,무색 ,자극적인 냄새 ,,8,101,46.5,2.1,51,18,0.045,20,68,25,,1.22,,-2.1,520,,,,46.0248,,"열,스파크,화염 ",금속 ,무,무,무,무,무,유 ,2,X,,,,,,,,,,,,,,,,,,,,,,,,,,,,,,,,,
,울산광역시 남구 산안로 46 ,35.5206887,129.3493724,20210223,17:37,제조 설비 ,이상 반응,과산화수소 ,폭발 ,,0,0,,7722-84-1,액체,무색 ,무향 ,약산성 ,-11,141,,,,,0.0026,25,100,25,1,1.4425,25,-1.36,,,1.245,,34.01,강산화제 ,"열,스파크,화염,마찰,오염 ","의복,가연성물질,물,연료 ",무 ,무 ,무 ,무 ,무 ,유 ,,X,,,,,,,,,,,,,,,,,,,,,,,,,,,,,,,,,
,전라북도 완주군 봉동읍 과학로 873(용암리 816)㈜한솔케미칼 전주공장,35.946381,127.1223617,20180228,,저장 설비 ,이상 반응,과산화수소 ,화재 ,,0,0,,7722-84-1,액체,무색 ,무향 ,약산성 ,-11,141,,,,,0.0026,25,100,25,1,1.4425,25,-1.36,,,1.245,,34.01,강산화제 ,"열,스파크,화염,마찰,오염 ","의복,가연성물질,물,연료 ",무 ,무 ,무 ,무 ,무 ,유 ,,X,,,,,,,,,,,,,,,,,,,,,,,,,,,,,,,,,
,경기도 안산시 단원구 강촌로 149(성곡동 600-1),37.3167283,126.7667277,20170927,,공정 설비 ,작업자 부주의 ,염소가스 ,유출 ,,0,34,,7782-50-5,액체 ,노란색,자극적인 냄새 ,강염기성,-101.05,-34.05,,,,,7.67,25,0.741,20,,1.424,15,0.85,,,0.013,20,70.905,비연소성,"공기,습한공기
,열","가연성물질, 환원성 물질
,다수의 유기화합물, 암모니아, 수소, 파편화된 금속",무,무,무,무,무,유 ,,X,,,,,,,,,,,,,,,,,,,,,,,,,,,,,,,,,
,충청남도 논산시 노성면 논산평야로 1168,36.2547224,127.1144616,20210318,1:52,여과 설비 ,이상 반응,혼합물,폭발 ,,1,9,,,,,,,,,,,,,,,,,,,,,,,,,,,,,,,,,,,,X,,,,,,,,,,,,,,,,,,,,,,,,,,,,,,,,,
,충청북도 청주시 청원구 오창읍 양청송대길 231,36.7298776,127.4514155,20210809,18:41,반응기 ,이상 반응,혼합물 ,누출,,0,4,,,,,,,,,,,,,,,,,,,,,,,,,,,,,,,,,,,,X,,,,,,,,,,,,,,,,,,,,,,,,,,,,,,,,,
,충청남도,36.557229,126.779757,20140831,,제조 설비 ,작업자 부주의 ,질산 ,누출 ,,0,6,,7697-37-2,액체,무색,자극적인 냄새 ,,-41.6,121,,,,,0.0012,20,50,20,2.2,1.5128,,-0.21,,,0.746,25,63.0119,불연성,"열,스파크,화염,고열","가연성물질,금속,물 ",무,무,무,유,유,유 ,15,X,,,,,,,,,,,,,,,,,,,,,,,,,,,,,,,,,
,울산광역시,35.519301,129.239078,20200910,,반응기 ,이상 반응,수산화나트륨,누출 ,,0,0,,1310-73-2,고체 ,흰색 ,무향 ,극염기성 ,318,1390,,,,,,,109,20,,2.13,20,-3.88,,,4,350,40,비인화성 ,열,"가연성 물질,환원성 물질,
금속",무 ,무 ,무 ,유 ,유 ,유 ,,X,,,,,,,,,,,,,,,,,,,,,,,,,,,,,,,,,
,충청북도 진천군 이월면 장수로 343-1,36.8893045,127.4205408,20210407,5:45,반응기 ,시설 관리 미흡 ,질산암모늄 ,폭발 ,,0,0,,6484-52-2,고체 ,흰색,무향 ,약산성 ,210,,210,,,,0.023,20,,,,1.72,,,,210,,,80.1,불연성,"열,스파크,화염,고열","가연성물질,연료 ",무,무,무,무,무,유 ,,O,Y,Y,N,Y,N,N,N,N,N,Y,Y,N,N,N,N,N,N,N,N,N,N,Y,Y,N,Y,N,N,N,,,,,
,경상남도 ,35.259787,128.664734,202009,8:16,반응기 ,이상 반응,페놀 ,파손 ,,0,0,,108-95-2,고체,무색,특징있는 냄새,약산성 ,43,182,79,,10,1.36,0.000197,25,8.4,20,,1.07,,1.47,715,,1.784,75,94.1124,,"열,스파크,화염 ",금속 ,무 ,무 ,무 ,무 ,무 ,유 ,,O,Y,N,N,N,N,N,N,N,N,N,N,N,N,N,N,Y,Y,N,N,N,N,N,N,N,N,N,N,N,,,,,
,경상북도,36.248647,128.664734,200803,,반응기 ,이상 반응,,파손 ,,2,10,,,,,,,,,,,,,,,,,,,,,,,,,,,,,,,,,,,,X,,,,,,,,,,,,,,,,,,,,,,,,,,,,,,,,,
,충청북도,36.628503,127.929344,201509,,반응기 ,이상 반응,,파손 ,,0,0,,,,,,,,,,,,,,,,,,,,,,,,,,,,,,,,,,,,X,,,,,,,,,,,,,,,,,,,,,,,,,,,,,,,,,
,경상북도,36.248647,128.664734,202007,17:00,열 분해기,작업자 부주의 ,폐액 ,화상 ,,0,3,,,,,,,,,,,,,,,,,,,,,,,,,,,,,,,,,,,,O,Y,Y,Y,Y,N,N,N,N,N,Y,N,N,N,N,N,Y,N,N,N,N,N,N,N,N,N,N,N,N,,,,,
,울산광역시,35.519301,129.239078,202005,,유화 공정 ,시설 관리 미흡 ,,화재 ,,1,0,,,,,,,,,,,,,,,,,,,,,,,,,,,,,,,,,,,,X,,,,,,,,,,,,,,,,,,,,,,,,,,,,,,,,,
,전라남도 ,34.8194,126.893113,201609,,열 분해기 ,작업자 부주의 ,,화재 ,,0,1,,,,,,,,,,,,,,,,,,,,,,,,,,,,,,,,,,,,X,,,,,,,,,,,,,,,,,,,,,,,,,,,,,,,,,
,전라남도 ,34.8194,126.893113,202101,16:30,정제 설비 ,시설 관리 미흡 ,등유 ,화상 ,,0,2,,68334-30-5,액체 ,,,,,175~284,58,,,,,,,,,0.82,15,3.3~6,,,,,,인화성 ,"열,스파크,화염,고열",,유 ,유 ,유 ,무 ,무 ,무 ,,X,,,,,,,,,,,,,,,,,,,,,,,,,,,,,,,,,
,전라남도 ,34.8194,126.893113,202002,,반응기 ,작업자 부주의 ,페놀 ,화학물질 중독 ,,1,0,,108-95-2,고체,무색,특징있는 냄새,약산성 ,43,182,79,,10,1.36,0.000197,25,8.4,20,,1.07,,1.47,715,,1.784,75,94.1124,,"열,스파크,화염 ",금속 ,무 ,무 ,무 ,무 ,무 ,유 ,,X,,,,,,,,,,,,,,,,,,,,,,,,,,,,,,,,,
,전라북도,35.716705,127.144185,202003,,반응기 ,시설 관리 미흡 ,n-펜탄,폭발 ,,1,2,,109-66-0,액체 ,무색 ,페인트 냄새 ,,-129.67,36.06,-40,28.6,7.8,1.5,0.53,18.5,0.00385,25,2.48,0.63,,3.45,260,,0.2224,,72.15,고인화성,"열,스파크,화염,고열",,유 ,유 ,유 ,무 ,무 ,무 ,,O,Y,Y,N,N,N,N,N,N,N,N,N,N,N,N,N,N,N,Y,N,N,Y,Y,N,N,N,N,N,Y,,,,,
,경상남도 ,35.259787,128.664734,201910,,저장 설비 ,시설 관리 미흡 ,,폭발 ,,0,2,,,,,,,,,,,,,,,,,,,,,,,,,,,,,,,,,,,,X,,,,,,,,,,,,,,,,,,,,,,,,,,,,,,,,,
,경상남도 ,35.259787,128.664734,201708,,배관 ,작업자 부주의 ,,폭발 ,,0,2,,,,,,,,,,,,,,,,,,,,,,,,,,,,,,,,,,,,X,,,,,,,,,,,,,,,,,,,,,,,,,,,,,,,,,
,서울특별시,37.540705,126.956764,201107,,저장 설비 ,작업자 부주의 ,톨루엔 ,폭발 ,,2,0,,108-88-3,액체,무색,벤젠 냄새,,-94.9,110.6,4,,7.8,1,0.037,25,0.526,25,3.1,,,2.73,480,,0.56,25,92.14,고인화성 ,"열,스파크,화염,고열",,무 ,무 ,무 ,무 ,무 ,유 ,,X,,,,,,,,,,,,,,,,,,,,,,,,,,,,,,,,,
,충청남도,36.557229,126.779757,202003,2:58,배관 ,시설 관리 미흡 ,혼합물 ,누출 ,,0,0,,,,,,,,,,,,,,,,,,,,,,,,,,,,,,,,,,,,O,Y,Y,N,N,N,N,Y,N,N,Y,N,N,N,N,N,Y,N,N,N,N,N,N,N,N,N,N,N,N,,,,,
,충청남도,36.557229,126.779757,201607,,반응기 ,시설 관리 미흡 ,,누출 ,,0,0,,,,,,,,,,,,,,,,,,,,,,,,,,,,,,,,,,,,X,,,,,,,,,,,,,,,,,,,,,,,,,,,,,,,,,
,충청남도,36.557229,126.779757,201804,,배관 ,시설 관리 미흡 ,,누출 ,,0,0,,,,,,,,,,,,,,,,,,,,,,,,,,,,,,,,,,,,X,,,,,,,,,,,,,,,,,,,,,,,,,,,,,,,,,
,충청북도,36.628503,127.929344,201907,9:34,용해조 ,작업자 부주의 ,수소,폭발 ,,0,2,,1333-74-0,기체 ,무색 ,무향 ,,-259,-253,,,75,4,1631.58,25,0.000162,21,0.07,,,0.45,535.5,,0.0256,26.8,2,극인화성 ,"열,스파크,화염,고열",,유 ,유 ,유 ,무 ,무 ,무 ,,X,,,,,,,,,,,,,,,,,,,,,,,,,,,,,,,,,
,강원도 ,37.555837,128.209315,201905,,저장 설비 ,작업자 부주의 ,산소 ,폭발 ,,2,6,,7782-44-7,기체,파란색,무향 ,,-218,-183,,,,,1,-183,0.0031,20,1.1,1.1407,,0.65,,,0.156,-173,32,산화제 ,열,"의복,가연성물질,연료,환원성물질",유 ,무 ,유 ,무,무,무 ,,X,,,,,,,,,,,,,,,,,,,,,,,,,,,,,,,,,
,울산광역시,35.519301,129.239078,202003,,펌프 ,시설 관리 미흡 ,황산 ,비산 ,,0,1,,7664-93-9,액체 ,무색 ,무향 ,강산성 ,10.4~10.94,337,,,,,0.0059,20,,,1.81,1.8,,-2.2,,340,21,,98.079,,"열,스파크,화염 ","가연성물질,금속,물",무 ,무 ,무 ,무 ,무 ,유 ,,X,,,,,,,,,,,,,,,,,,,,,,,,,,,,,,,,,
,전라남도 ,34.8194,126.893113,19970911,10:00,펌프 ,시설 관리 미흡 ,휘발유 ,폭발 ,,0,4,,8006-61-9,액체 ,무색 ,특이한 냄새,,-90.5~-95.4,32~210,,,7.6,1.2,0.65,,,,3.5,0.75,,4.05,,,,,,고인화성 ,"열,스파크,화염,고열",,유 ,유 ,유 ,무 ,무 ,무 ,,X,,,,,,,,,,,,,,,,,,,,,,,,,,,,,,,,,
,전라남도 ,34.8194,126.893113,19971009,21:10,배출 설비 ,시설 관리 미흡 ,헥산,폭발 ,,0,0,,110-54-3,액체 ,무색 ,휘발유 냄새,,-95.35,68.73,-22,,7.5,1.1,0.2,25,0.0013,20,2.97,0.66,,3.9,225,,0.326,20,86.18,고인화성 ,"열,스파크,화염,고열",,유 ,유 ,유 ,무 ,무 ,무 ,,X,,,,,,,,,,,,,,,,,,,,,,,,,,,,,,,,,
,울산광역시,35.519301,129.239078,19980618,17:08,저장 설비 ,시설 관리 미흡 ,싸이크로헥산,폭발 ,,0,0,,108-87-2 ,액체 ,무색 ,벤젠 냄새,,-126.6,100.93,-4,,6.7,1.2,0.0098,-7.9,0.0014,25,3.39,0.7694,,3.88,250,,0.679,,98.19,고인화성 ,"열,스파크,화염,고열",,유 ,유 ,유 ,무 ,무 ,무 ,,X,,,,,,,,,,,,,,,,,,,,,,,,,,,,,,,,,
,인천광역시,37.469221,126.573234,20000430,22:06,밸브 ,시설 관리 미흡 ,혼합물 ,폭발 ,,1,5,,,,,,,,,,,,,,,,,,,,,,,,,,,,,,,,,,,,X,,,,,,,,,,,,,,,,,,,,,,,,,,,,,,,,,
여천공단 ,전라남도 ,34.8176658,127.674523,20000824,10:12,덕트 ,시설 관리 미흡 ,메틸 에틸 케톤 퍼옥사이드,폭발 ,공장 단지 ,6,19,,1338-23-4,액체 ,무색 ,톡 쏘는 냄새 ,,110,284,87.78,,,,8.32E-05,25,63,25,,1.135,,,,,,,176.2,,"열,스파크,화염,고열",가연성 물질,무 ,무 ,무 ,무 ,무 ,유 ,,X,,,,,,,,,,,,,,,,,,,,,,,,,,,,,,,,,
,경기도 ,37.567167,127.190292,20001102,17:08,반응기 ,시설 관리 미흡 ,DBNE,폭발 ,,5,48,,69094-18-4,액체 ,무색,약한 향,,77.69,244,101.4,,,,2.34E-07,,0.575,,,2.533,,0.27,,,,,248.88,,"열,스파크,화염 ","가연성 물질 자극성, 독성 가스",유 ,무 ,유 ,무 ,무 ,무 ,,X,,,,,,,,,,,,,,,,,,,,,,,,,,,,,,,,,
,전라남도 ,34.8194,126.893113,20010924,11:17,배관 ,작업자 부주의 ,황산 ,폭발 ,,1,1,,1333-74-0,액체 ,무색 ,무향 ,강산성 ,10.4~10.94,337,,,,,0.0059,20,,,1.81,1.8,,-2.2,,340,21,,98.079,,"열,스파크,화염 ","가연성물질,금속,물",무 ,무 ,무 ,무 ,무 ,유 ,,X,,,,,,,,,,,,,,,,,,,,,,,,,,,,,,,,,
,전라남도 ,34.8194,126.893113,20011015,9:43,밸브 ,작업자 부주의 ,수소 ,폭발 ,,1,1,,1333-74-0,기체 ,무색 ,무향 ,,-259,-253,,,75,4,1631.58,25,0.000162,21,0.07,,,0.45,535.5,,0.0256,26.8,2,극인화성 ,"열,스파크,화염,고열",,유 ,유 ,유 ,무 ,무 ,무 ,,X,,,,,,,,,,,,,,,,,,,,,,,,,,,,,,,,,
,충청북도,36.628503,127.929344,20020326,16:23,중화조 ,작업자 부주의 ,아세톤 ,화재 ,,0,3,,67-64-1,액체 ,무색 ,달콤한 냄새,중성 ,-95,56.1,-18,,13,2.2,0.24,20,100,25,,0.79,,-0.24,465,,,,58.08,고인화성 ,"열,스파크,화염,고열",,무 ,무 ,무 ,무 ,무 ,유 ,,X,,,,,,,,,,,,,,,,,,,,,,,,,,,,,,,,,
,경기도 ,37.567167,127.190292,20020817,11:00,생산 설비 ,시설 관리 미흡 ,알루미늄 분진 ,폭발 ,,0,0,,7429-90-5,고체,은백색 ,무향 ,,660,2327,,,,,,,,,,2.7,,,590,,,,26.98,,"습기
열,스파크,화염 ",물,,유 ,유 ,유 ,무 ,무 ,,X,,,,,,,,,,,,,,,,,,,,,,,,,,,,,,,,,
,,,,20010901,9:45,밸브 ,작업자 부주의 ,염소 ,누출 ,,0,10,,7782-50-5,액체 ,노란색,자극적인 냄새 ,강염기성,-101.05,-34.05,,,,,7.67,25,0.741,20,,1.424,15,0.85,,,0.013,20,70.905,비연소성,"공기,습한공기
,열","가연성물질, 환원성 물질
,다수의 유기화합물, 암모니아, 수소, 파편화된 금속",무,무,무,무,무,유 ,,X,,,,,,,,,,,,,,,,,,,,,,,,,,,,,,,,,
,울산광역시,35.519301,129.239078,20030618,14:30,저장 설비 ,작업자 부주의 ,황화수소 ,폭발 ,,1,3,,7783-06-04,기체,무색 ,썩은 달걀 냄새 ,약산성 ,-85,-60,,,46,4.3,20,25,0.4,20,1.19,2.1,,0.23,260,,0.0128,25,34.08,극인화성 ,"열,스파크,화염,고열",,무 ,무 ,무 ,무 ,무 ,유 ,,X,,,,,,,,,,,,,,,,,,,,,,,,,,,,,,,,,
,전라남도 ,34.8194,126.893113,20031003,18:05,여과 설비 ,작업자 부주의 ,n-헥산 ,화재 ,,1,7,,110-54-3,액체 ,무색 ,휘발유 냄새,,-95.35,68.73,-22,,7.5,1.1,0.2,,0.0013,20,2.97,0.66,,3.9,225,,0.326,20,86.18,고인화성 ,"열,스파크,화염,고열",,유 ,유 ,유 ,무 ,무 ,무 ,,X,,,,,,,,,,,,,,,,,,,,,,,,,,,,,,,,,
,경기도 ,37.567167,127.190292,20040114,,저장 설비 ,작업자 부주의 ,클로로술폰산,폭발 ,,1,0,,7790-94-5,액체 ,무색,자극적인 냄새 ,산성 ,-80,152,,,,,0.0013,20,40,20,4.02,1.685,37,-0.0032,,,3,15,116.52,불연성,"열,스파크,화염 ","가연성물질,금속,물",무 ,무 ,무 ,무 ,무 ,유 ,,X,,,,,,,,,,,,,,,,,,,,,,,,,,,,,,,,,
(주)진광화학 ,경상북도 ,35.8529696,128.8055926,20041119,9:30,저장 설비 ,작업자 부주의 ,혼합물 ,화재 ,접착제 및 젤라틴 제조업,0,9,,,,,,,,,,,,,,,,,,,,,,,,,,,,,,,,,,,,X,,,,,,,,,,,,,,,,,,,,,,,,,,,,,28,,"접착제,젤라틴",1,
 (주)M&H레버러토리즈,전라남도 ,34.8252381,127.6813647,20050716,0:00,중화조 ,작업자 부주의 ,혼합물 ,누출 ,,0,70,,,,,,,,,,,,,,,,,,,,,,,,,,,,,,,,,,,,X,,,,,,,,,,,,,,,,,,,,,,,,,,,,,60,,,,
,경기도 ,37.567167,127.190292,20060817,,저장 설비 ,작업자 부주의 ,염소산나트륨,유출 ,,0,72,,7775-09-09,고체,무색,무향 ,중성 ,248,,,,,,,,100,20,3.7,2.5,,,,300,,,106.44,산화제 ,"열,스파크,화염,고열","가연성물질,연료 ",유 ,유 ,유 ,무 ,무 ,무 ,,X,,,,,,,,,,,,,,,,,,,,,,,,,,,,,,,,,
,강원도 ,37.555837,128.209315,20070221,,소각장 ,작업자 부주의 ,질산암모늄 ,폭발 ,,2,9,,6484-52-2,고체 ,흰색,무향 ,약산성 ,210,,210,,,,0.023,20,,,,1.72,,,,210,,,80.1,불연성,"열,스파크,화염,고열","가연성물질,연료 ",무,무,무,무,무,유 ,,X,,,,,,,,,,,,,,,,,,,,,,,,,,,,,,,,,
,"경기도 시흥시 시화벤처로 59, 35동 ",37.3330721,126.6915873,20220823,,저장 설비 ,작업자 부주의 , 질산,누출,,0,0,,7697-37-2,액체,무색,자극적인 냄새 ,,-41.6,121,,,,,0.0012,20,50,20,2.2,1.5128,,-0.21,,,0.746,25,63.0119,불연성,"열,스파크,화염,고열","가연성물질,금속,물 ",무,무,무,유,유,유 ,10,X,,,,,,,,,,,,,,,,,,,,,,,,,,,,,,,,,
㈜이피엠,경기도 ,37.303089,126.7787975,20220812,,이송 호스 ,운송차량 사고,염산 ,누출 ,그 외 기타 달리 분류되지 않은 제품 제조업,0,0,,10361-95-2,고체 ,노란색 ,,,,,,,,,,,262,20,,2.15,,,,60,,,232.29,,"열,스파크,화염,고열","가연성물질,연료 ",유,유,유,무,무,무,20,X,,,,,,,,,,,,,,,,,,,,,,,,,,,,,,,,,
,경기도 평택시 산단로 16번길 62 ,37.0338765,127.0755534,20220719,,저장 설비 ,작업자 부주의 ,폐산 ,누출 ,,0,0,,,,,,,,,,,,,,,,,,,,,,,,,,,,,,,,,,,,X,,,,,,,,,,,,,,,,,,,,,,,,,,,,,,,,,
,경기도 평택시 안중읍 대반리 539-9 소재 도로상  ,36.9810302,126.9572162,20220614,,도로 ,운송차량 사고,자일렌(크실렌),누출 ,,0,0,,1330-20-7,액체,무색,달콤한 냄새,,13,138,,,,,0.012,25,,,3.7,0.864,,3.15,,,,,106.16,,"열,스파크,화염,고열",,무,무,무,무,무,유,,X,,,,,,,,,,,,,,,,,,,,,,,,,,,,,,,,,
,경기도 화성시 장안면 매바위로366번길 68-13 ,37.1453128,126.8209175,20220525,,이송 호스 ,작업자 부주의 ,폐산,유출,,0,2,,,,,,,,,,,,,,,,,,,,,,,,,,,,,,,,,,,,X,,,,,,,,,,,,,,,,,,,,,,,,,,,,,,,,,
,"경기도 안성시 공도읍 양기리 223-7(평택제천고속도로 평택기점 31:1 km, 남안성 IC 인근) ",36.9992064,127.202464,20220516,,도로 ,운송차량 사고,염산 ,누출 ,,0,0,,10361-95-2,고체 ,노란색 ,,,,,,,,,,,262,20,,2.15,,,,60,,,232.29,,"열,스파크,화염,고열","가연성물질,연료 ",유,유,유,무,무,무,30,X,,,,,,,,,,,,,,,,,,,,,,,,,,,,,,,,,
,경기도 파주시 운정로 3-4 ,37.7267969,126.7685836,20220502,,가정집 ,작업자 부주의 ,불화수소,누출 ,,0,0,,7664-39-3,기체 ,무색 ,자극적인 냄새 ,산성 ,-83.53,19.51,,,,,1.2,25,,,0.95,1,,,,,0.256,0,20.01,불연성,열,"물,
분리 그룹",무 ,무 ,무 ,무 ,무 ,유 ,20,X,,,,,,,,,,,,,,,,,,,,,,,,,,,,,,,,,
,경기도 시흥시 수인로 2732-16 ,37.4068926,126.8302075,20220419,,저장 설비 ,작업자 부주의 ,초산 에틸(아세트산 에틸),화재 ,,0,0,,141-78-6,액체 ,무색,달콤한 냄새,,-84,77,-4,,11.5,2.2,0.12,25,6.4,25,3,0.9,,0.73,427,,0.44,25,88.11,고인화성 ,"열,스파크,화염,고열",,유 ,유 ,유 ,무 ,무 ,무 ,,X,,,,,,,,,,,,,,,,,,,,,,,,,,,,,,,,,
,경기도 안산시 단원구 범지기로141번길 39 ,37.3109465,126.7920887,20220412,,폐 저장 설비 ,시설 결함,황화수소,증기 흡입 ,,0,3,,7783-06-04,기체,무색 ,썩은 달걀 냄새 ,약산성 ,-85,-60,,,46,4.3,20,25,0.4,20,1.19,2.1,,0.23,260,,0.0128,25,34.08,극인화성 ,"열,스파크,화염,고열",,무 ,무 ,무 ,무 ,무 ,유 ,,X,,,,,,,,,,,,,,,,,,,,,,,,,,,,,,,,,
,경기도 평택시 산단로 88-19 ,37.035157,127.0804305,20220314,,제조 설비 ,작업자 부주의 ,테트라에틸 암모늄 수산화물,유출 ,,0,0,,77-98-5 ,고체 ,무색 ,,,99.5,304,,,,,8.04E-12,25,21.3,25,,1.744,,-0.51,,,,,260.89,비인화성,열 ,"가연성물질,환원성물질,금속,분리그룹",무 ,무 ,무 ,유 ,유 ,유 ,2,X,,,,,,,,,,,,,,,,,,,,,,,,,,,,,,,,,
,경기도 양주시 남면 현석로 785번길 207 ,37.8586253,126.9799117,20220214,,저장 설비 ,작업자 부주의 ,초산 ,누출 ,,0,1,,64-19-7,액체 ,무색 ,,산성 ,16.6,117.9,39,,17,6,0.021,25,30.29,25,,1.05,,-0.17,485,,1.056,25,60.0516,인화성 ,"열,스파크,화염,고열",,무 ,무 ,무 ,무 ,무 ,유 ,100,X,,,,,,,,,,,,,,,,,,,,,,,,,,,,,,,,,
 한정물류,경기도 ,37.4859001,126.6550853,20211210,,이송 호스 ,작업자 부주의 ,수산화나트륨,누출 ,일반 화물자동차 운송업,0,0,,1310-73-2,고체 ,흰색 ,무향 ,극염기성 ,318,1390,,,,,,,109,20,,2.13,20,-3.88,,,4,350,40,비인화성 ,열,"가연성 물질,환원성 물질,
금속",무 ,무 ,무 ,유 ,유 ,유 ,,X,,,,,,,,,,,,,,,,,,,,,,,,,,,,,,,,5,
,경기도 안산시 단원구 해안로 309-14 ,37.2982273,126.7911522,20211103,,실험실 ,작업자 부주의 ,혼합물 ,누출 ,,0,0,,,,,,,,,,,,,,,,,,,,,,,,,,,,,,,,,,,1,X,,,,,,,,,,,,,,,,,,,,,,,,,,,,,,,,,
동광화학㈜,경기도 ,37.514121,126.7799626,20211026,,도로,운송차량 사고,암모니아 ,누출 ,산업용 가스 제조업,0,0,,7664-41-7,기체 ,무색 ,자극적인 냄새 ,염기성 ,-78,-33.35,132,,15,33.6,9.99,26,54,20,0.59,0.7,-33,0.23,651,382.8,0.255,,17.03,극인화성 ,"열,스파크,화염,고열","물,강산화제,산,할로겐화물,중금속,분리그룹 ",무 ,무 ,무 ,무 ,무 ,유 ,125,X,,,,,,,,,,,,,,,,,,,,,,,,,,,,,9,핵사민,산업용 가스,1,
,경기도 양주시 고덕로 139번길 360,37.820919,127.0596516,20211015,,저장 설비 ,작업자 부주의 ,질산 ,누출 ,,0,2,,7697-37-2,액체,무색,자극적인 냄새 ,,-41.6,121,,,,,0.0012,20,50,20,2.2,1.5128,,-0.21,,,0.746,25,63.0119,불연성,"열,스파크,화염,고열","가연성물질,금속,물 ",무,무,무,유,유,유 ,,X,,,,,,,,,,,,,,,,,,,,,,,,,,,,,,,,,
,경기도 안산시 단원구 범지기로 141번길 50,37.3108005,126.7942017,20211001,,밸브 ,작업자 부주의 ,질산(68%),누출 ,,0,1,,7697-37-2,액체,무색,자극적인 냄새 ,,-41.6,121,,,,,0.0012,20,50,20,2.2,1.5128,,-0.21,,,0.746,25,63.0119,불연성,"열,스파크,화염,고열","가연성물질,금속,물 ",무,무,무,유,유,유 ,0.5,X,,,,,,,,,,,,,,,,,,,,,,,,,,,,,,,,,
,경기도 용인시 기흥구 덕영대로 1732,37.2451952,127.0789561,20210803,,실럼실,작업자 부주의 ,리튬 ,물질 반응 ,,0,1,,7439-93-2,고체 ,은백색,무향 ,극염기성 ,180.5,1336,,0,,,1.28E-08,723,,,,0.5,,,179,,,,6.9,,"습기
열,스파크,화염 ","물,습기",무 ,무 ,무 ,무 ,무 ,유 ,,X,,,,,,,,,,,,,,,,,,,,,,,,,,,,,,,,,
,경기도 안산시 단원구 해안로 131,37.3000701,126.7732715,20210724,,밸브 ,시설 결함,황산 ,누출 ,,0,1,,7664-93-9,액체 ,무색 ,무향 ,강산성 ,10.4~10.94,337,,,,,0.0059,20,,,1.81,1.8,,-2.2,,340,21,,98.079,,"열,스파크,화염 ","가연성물질,금속,물",무 ,무 ,무 ,무 ,무 ,유 ,0.5,X,,,,,,,,,,,,,,,,,,,,,,,,,,,,,,,,,
,경기도 ,37.567167,127.190292,2020708,,저장 설비 ,작업자 부주의 ,수산화칼륨(45%),화재 ,,0,0,,1310-58-3,고체 ,흰색 ,무향 ,,380,1324,,,,,0.0013,,112,20,,2.04,,,,,2.554,,56.1049,비인화성,열,"가연성 물질,환원성 물질,
금속",무 ,무 ,무 ,유 ,유 ,유 ,,X,,,,,,,,,,,,,,,,,,,,,,,,,,,,,,,,,
,경기도 양주시 남면 화합로430번길 229-30  ,37.8558197,126.9774042,20210707,,저장 설비 ,시설 결함,과산화수소(32%),누출 ,,0,0,,7722-84-1,액체,무색 ,무향 ,약산성 ,-11,141,,,,,0.0026,25,100,25,1,1.4425,25,-1.36,,,1.245,,34.01,강산화제 ,"열,스파크,화염,마찰,오염 ","의복,가연성물질,물,연료 ",무 ,무 ,무 ,무 ,무 ,유 ,"5,000",X,,,,,,,,,,,,,,,,,,,,,,,,,,,,,,,,,
,경기도 김포시 대곶면 대곶북로 121-2,37.6587747,126.5875326,20210707,,배관 ,시설 결함,암모니아 ,누출 ,,0,0,,7664-41-7,기체 ,무색 ,자극적인 냄새 ,염기성 ,-78,-33.35,132,,15,33.6,9.99,26,54,20,0.59,0.7,-33,0.23,651,382.8,0.255,,17.03,극인화성 ,"열,스파크,화염,고열","물,강산화제,산,할로겐화물,중금속,분리그룹 ",무 ,무 ,무 ,무 ,무 ,유 ,907.185,X,,,,,,,,,,,,,,,,,,,,,,,,,,,,,,,,,
,경기도 안산시 단원구 신원로 289,37.3092697,126.7685262,20210703,,공정 설비 ,시설 결함,황산(14.2%),누출 ,,0,0,,7664-93-9,액체 ,무색 ,무향 ,강산성 ,10.4~10.94,337,,,,,0.0059,20,,,1.81,1.8,,-2.2,,340,21,,98.079,,"열,스파크,화염 ","가연성물질,금속,물",무 ,무 ,무 ,무 ,무 ,유 ,9979.03,X,,,,,,,,,,,,,,,,,,,,,,,,,,,,,,,,,
,"경기도 평택시 청북읍 고잔리 산126-13, 도로상",37.0444484,126.8967398,20210628,,도로 ,운송차량 사고,포름산(85%),누출 ,,0,0,,64-18-6,액체 ,무색 ,자극적인 냄새 ,,8,101,46.5,2.1,51,18,0.045,20,68,25,,1.22,,-2.1,520,,,,46.0248,,"열,스파크,화염 ",금속 ,무,무,무,무,무,유 ,200,X,,,,,,,,,,,,,,,,,,,,,,,,,,,,,,,,,
,경기도 평택시 포승읍 포승공단로 2,36.9747057,126.836665,20210626,,밸브 ,시설 결함,암모니아 ,유출 ,,0,0,,7664-41-7,기체 ,무색 ,자극적인 냄새 ,염기성 ,-78,-33.35,132,,15,33.6,9.99,26,54,20,0.59,0.7,-33,0.23,651,382.8,0.255,,17.03,극인화성 ,"열,스파크,화염,고열","물,강산화제,산,할로겐화물,중금속,분리그룹 ",무 ,무 ,무 ,무 ,무 ,유 ,,X,,,,,,,,,,,,,,,,,,,,,,,,,,,,,,,,,
,"경기도 시흥시 공단2대로139번길 10, 711호",37.3313747,126.70975,20210623,,반응기 ,시설 결함, 메틸메타크릴레이트,폭발 ,,0,1,,80-62-6 ,휘발성 액체 ,무색,과일향 ,,-47.55,100.5,10,3.1,12.5,1.7,0.051,25,1.6,20,3.45,0.94,,1.38,421,,0.53,25,100.13,고인화성 ,"열,스파크,화염,고열",,무 ,무 ,무 ,무 ,무 ,유 ,,X,,,,,,,,,,,,,,,,,,,,,,,,,,,,,,,,,
,경기도 안양시 동안구 시민대로 74,37.3822726,126.942997,20210621,,연구소,작업자 부주의 ,적린(인),폭발 ,,0,1,,7723-14-0,고체 ,,마늘 냄새,,,280,20,,,,3.42E-05,20,3300,15,4.595,1.82,,-0.27,30,,1.69,50,123.9,고인화성 ,"열,스파크,화염,고열,공기 ","공기,금속 ",유,유,유,무,무,무,,X,,,,,,,,,,,,,,,,,,,,,,,,,,,,,,,,,
,경기도 과천시 교육원로 11 ,37.4229669,126.988186,20210604,,실험실 ,작업자 부주의 ,질산,누출 ,,0,1,,7697-37-2,액체,무색,자극적인 냄새 ,,-41.6,121,,,,,0.0012,20,50,20,2.2,1.5128,,-0.21,,,0.746,25,63.0119,불연성,"열,스파크,화염,고열","가연성물질,금속,물 ",무,무,무,유,유,유 ,0.03,X,,,,,,,,,,,,,,,,,,,,,,,,,,,,,,,,,
,경기도 부천시 벌말로 220 ,37.5467705,126.7686332,20210514,,실험실 ,작업자 부주의 ,황산 ,누출 ,,0,0,,7664-93-9,액체 ,무색 ,무향 ,강산성 ,10.4~10.94,337,,,,,0.0059,20,,,1.81,1.8,,-2.2,,340,21,,98.079,,"열,스파크,화염 ","가연성물질,금속,물",무 ,무 ,무 ,무 ,무 ,유 ,,X,,,,,,,,,,,,,,,,,,,,,,,,,,,,,,,,,
,경기도 화성시 장안면 장안공단3길 16 ,37.1052192,126.8450525,20210510,,폐 저장 설비 ,작업자 부주의 ,다이메틸실란다이올,폭발 ,,0,0,,1066-42-8,고체 ,,,,101,,,,,,,,100,25,,1.097,,-0.41,,,,,92.1692,,"열,스파크,화염 ","가연성 물질
자극성, 독성 가스",무 ,무 ,무 ,무 ,무 ,무 ,,X,,,,,,,,,,,,,,,,,,,,,,,,,,,,,,,,,
,경기도 포천시 해룡로 109-180 ,37.8483678,127.141737,20210506,,저장 설비 ,시설 결함,메틸에틸케톤,화재,,0,0,,78-93-3,액체 ,무색 ,박하 및 달콤한 냄새 ,중성 ,-86,79.59,-9,2.7,11.5,1.8,0.12,25,29,20,2.41,0.8,,0.29,505,,0.4,25,72.11,고인화성 ,"열,스파크,화염,고열",,무 ,무 ,무 ,무 ,무 ,유 ,,X,,,,,,,,,,,,,,,,,,,,,,,,,,,,,,,,,
,경기도 파주시 월롱면 엘지로 245 ,37.8121184,126.762674,20210505,,밸브 ,작업자 부주의 ,염산(19%),누출 ,,0,0,,10361-95-2,고체 ,노란색 ,,,,,,,,,,,262,20,,2.15,,,,60,,,232.29,,"열,스파크,화염,고열","가연성물질,연료 ",유,유,유,무,무,무,1,X,,,,,,,,,,,,,,,,,,,,,,,,,,,,,,,,,
,경기도 이천시 부발읍 경충대로 2091 ,37.252116,127.4866466,20210406,,저장 설비 ,작업자 부주의 ,혼합물 ,누출 ,,0,3,,,,,,,,,,,,,,,,,,,,,,,,,,,,,,,,,,,,X,,,,,,,,,,,,,,,,,,,,,,,,,,,,,,,,,
,경기도 안산시 단원구 해봉로 334 ,37.3256203,126.7772501,20210323,,제조 설비 ,시설 결함,염소산나트륨,누출 ,,0,0,,7775-09-09,고체,무색,무향 ,중성 ,248,,,,,,,,100,20,3.7,2.5,,,,300,,,106.44,산화제 ,"열,스파크,화염,고열","가연성물질,연료 ",유 ,유 ,유 ,무 ,무 ,무 ,5,X,,,,,,,,,,,,,,,,,,,,,,,,,,,,,,,,,
,경기도 시흥시 소망공원로 335 ,37.3276631,126.7340967,20210318,,이송 호스 ,운송차량 사고, 과산화수소(35%),누출 ,,0,0,,7722-84-1,액체,무색 ,무향 ,약산성 ,-11,141,,,,,0.0026,25,100,25,1,1.4425,25,-1.36,,,1.245,,34.01,강산화제 ,"열,스파크,화염,마찰,오염 ","의복,가연성물질,물,연료 ",무 ,무 ,무 ,무 ,무 ,유 ,132,X,,,,,,,,,,,,,,,,,,,,,,,,,,,,,,,,,
,경기도 성남시 중원구 둔촌대로457번길 27  ,37.4338944,127.1701384,20210302,,실험실 ,작업자 부주의 ,황산(96%),누출 ,,0,1,,7664-93-9,액체 ,무색 ,무향 ,강산성 ,10.4~10.94,337,,,,,0.0059,20,,,1.81,1.8,,-2.2,,340,21,,98.079,,"열,스파크,화염 ","가연성물질,금속,물",무 ,무 ,무 ,무 ,무 ,유 ,,X,,,,,,,,,,,,,,,,,,,,,,,,,,,,,,,,,
,경기도 안산시 단원구 성곡동 627-2 인근 도로상 ,37.3454366,126.828494,20210114,,도로 ,운송차량 사고,수산화나트륨(33%),누출 ,,0,0,,1310-73-2,고체 ,흰색 ,무향 ,극염기성 ,318,1390,,,,,,,109,20,,2.13,20,-3.88,,,4,350,40,비인화성 ,열,"가연성 물질,환원성 물질,
금속",무 ,무 ,무 ,유 ,유 ,유 ,600,X,,,,,,,,,,,,,,,,,,,,,,,,,,,,,,,,,
,경기도 파주시 월롱면 엘지로 245 ,37.8121184,126.762674,20210113,,배관 ,작업자 부주의 ,혼합물,누출 ,,0,0,,,,,,,,,,,,,,,,,,,,,,,,,,,,,,,,,,,400,X,,,,,,,,,,,,,,,,,,,,,,,,,,,,,,,,,
,경기도 양주시 청담로 163-26 ,37.8147107,127.0709142,20201229,,배관 ,시설 결함, 혼합물,누출 ,,0,2,,,,,,,,,,,,,,,,,,,,,,,,,,,,,,,,,,,,X,,,,,,,,,,,,,,,,,,,,,,,,,,,,,,,,,
,경기도 용인시 기흥구 덕영대로 1732 ,37.2451952,127.0789561,20201224,,실험실 ,작업자 부주의 ,포스포릴클로라이드(옥시염화인) ,가스 발생 ,,0,1,,10025-87-3,액체 ,무색 ,자극적인 냄새 ,강산성,1.18,105.5,,,,,0.039,,,,5.3,1.645,25,,,,,,153.33,,"열,스파크,화염 ","가연성물질,금속,물",무 ,무 ,무 ,무 ,무 ,유 ,1,X,,,,,,,,,,,,,,,,,,,,,,,,,,,,,,,,,
,경기도 양주시 남면 삼일로485번길 78-7 ,37.8640742,126.9860431,20201201,,배관 ,작업자 부주의 ,암모니아수,누출 ,,0,0,,1336-21-6,휘발성 액체 ,무색 ,자극적인 냄새 ,,-77,36,,,,,0.47,20,100,25,1.2,0.9,,-2.66,,,,,35.05,비인화성 ,열,"가연성 물질,환원성 물질,
금속",무 ,무 ,무 ,유 ,유 ,유 ,907.185,X,,,,,,,,,,,,,,,,,,,,,,,,,,,,,,,,,
,경기도 수원시 영통구 삼성로 130  ,37.2525495,127.0557495,20201119,,밸브 ,작업자 부주의 ,암모니아 ,누출 ,,0,2,,7664-41-7,기체 ,무색 ,자극적인 냄새 ,염기성 ,-78,-33.35,132,,15,33.6,9.99,26,54,20,0.59,0.7,-33,0.23,651,382.8,0.255,,17.03,극인화성 ,"열,스파크,화염,고열","물,강산화제,산,할로겐화물,중금속,분리그룹 ",무 ,무 ,무 ,무 ,무 ,유 ,12,X,,,,,,,,,,,,,,,,,,,,,,,,,,,,,,,,,
,경기도 화성시 향남읍 발안로 701-5 ,37.126012,126.9808713,20201023,,저장 설비 ,작업자 부주의 ,초산 에틸(아세트산 에틸),화재 ,,0,0,,141-78-6,액체 ,무색,달콤한 냄새,,-84,77,-4,,11.5,2.2,0.12,25,6.4,25,3,0.9,,0.73,427,,0.44,25,88.11,고인화성 ,"열,스파크,화염,고열",,유 ,유 ,유 ,무 ,무 ,무 ,,X,,,,,,,,,,,,,,,,,,,,,,,,,,,,,,,,,
,"경기도 시흥시 매화로 176, 인근 도로상 ",37.4092072,126.8214488,20201019,,도로,운송차량 사고,디클로로메탄,누출 ,,0,0,,26638-19-7,액체 ,무색 ,클로로포름 냄새 ,,,88.1,-5,,,,0.067,,0.27,,,1.1,,2.25,,,,,112.99,고인화성,"열,스파크,화염,고열",,유 ,유 ,유 ,무 ,무 ,무 ,150,X,,,,,,,,,,,,,,,,,,,,,,,,,,,,,,,,,
,경기도 평택시 모곡동 169 인근 평택제천고속도로 송탄졸음쉼터 ,37.0314807,127.0806079,20200818,,도로,운송차량 사고,염산(35%),누출 ,,0,0,,10361-95-2,고체 ,노란색 ,,,,,,,,,,,262,20,,2.15,,,,60,,,232.29,,"열,스파크,화염,고열","가연성물질,연료 ",유,유,유,무,무,무,20,X,,,,,,,,,,,,,,,,,,,,,,,,,,,,,,,,,
,경기도 안성시 미양면 서운로 673-24 ,36.9727944,127.2637805,20200810,,반응기 ,시설 결함,혼합물 ,누출 ,,0,0,,,,,,,,,,,,,,,,,,,,,,,,,,,,,,,,,,,,X,,,,,,,,,,,,,,,,,,,,,,,,,,,,,,,,,
,경기도 화성시 남양읍 주석로325번길 38 ,37.2087798,126.8661195,20200731,,반응기 ,시설 결함,혼합물 ,가스 발생 ,,0,0,,,,,,,,,,,,,,,,,,,,,,,,,,,,,,,,,,,,X,,,,,,,,,,,,,,,,,,,,,,,,,,,,,,,,,
,경기도 여주시 선사길 104 ,37.2302562,127.6706432,20200627,,저장 설비 ,작업자 부주의 , 염산(15%) ,유출 ,,0,0,,10361-95-2,고체 ,노란색 ,,,,,,,,,,,262,20,,2.15,,,,60,,,232.29,,"열,스파크,화염,고열","가연성물질,연료 ",유,유,유,무,무,무,,X,,,,,,,,,,,,,,,,,,,,,,,,,,,,,,,,,
,"경기도 안산시 단원구 신원로 12, 인근 도로상 ",37.3240946,126.7529073,20200625,,도로 ,작업자 부주의 ,황산 ,누출 ,,0,0,,7664-93-9,액체 ,무색 ,무향 ,강산성 ,10.4~10.94,337,,,,,0.0059,20,,,1.81,1.8,,-2.2,,340,21,,98.079,,"열,스파크,화염 ","가연성물질,금속,물",무 ,무 ,무 ,무 ,무 ,유 ,,X,,,,,,,,,,,,,,,,,,,,,,,,,,,,,,,,,
,경기도 파주시 월롱면 엘지로 245 ,37.8121184,126.762674,20200604,,배관 ,작업자 부주의 ,수산화나트륨,누출 ,,0,0,,1310-73-2,고체 ,흰색 ,무향 ,극염기성 ,318,1390,,,,,,,109,20,,2.13,20,-3.88,,,4,350,40,비인화성 ,열,"가연성 물질,환원성 물질,
금속",무 ,무 ,무 ,유 ,유 ,유 ,1,X,,,,,,,,,,,,,,,,,,,,,,,,,,,,,,,,,
,"경기도 과천시 경마공원대로 107, 한국마사회 도핑검사소 ",37.4435926,127.0128156,20200505,,저장 설비 ,작업자 부주의 ,혼합물,누출 ,,0,0,,,,,,,,,,,,,,,,,,,,,,,,,,,,,,,,,,,0.3,X,,,,,,,,,,,,,,,,,,,,,,,,,,,,,,,,,
,경기도 이천시 부발읍 경충대로 2091 ,37.252116,127.4866466,20200415,,배관 ,작업자 부주의 ,황산 ,누출 ,,0,0,,7664-93-9,액체 ,무색 ,무향 ,강산성 ,10.4~10.94,337,,,,,0.0059,20,,,1.81,1.8,,-2.2,,340,21,,98.079,,"열,스파크,화염 ","가연성물질,금속,물",무 ,무 ,무 ,무 ,무 ,유 ,1,X,,,,,,,,,,,,,,,,,,,,,,,,,,,,,,,,,
,경기도 화성시 마도면 청원산단5길 40 ,37.1689579,126.7700253,20200305,,저장 설비 ,작업자 부주의 , 아크릴산,누출 ,,0,0,,1979-10-07,액체 ,무색 ,자극적인 냄새 ,,13.5,,50,,8,2.4,0.0041,20,100,25,2.5,1.05,,0.36,395,,,,72.06,인화성 ,"열,스파크,화염,고열",,무 ,무 ,무 ,무 ,무 ,유 ,,X,,,,,,,,,,,,,,,,,,,,,,,,,,,,,,,,,
,경기도 남양주시 경강로 27  ,37.612991,127.1757374,20200223,,실험실 ,작업자 부주의 ,폐혼합물 ,화재 ,,0,0,,,,,,,,,,,,,,,,,,,,,,,,,,,,,,,,,,,,X,,,,,,,,,,,,,,,,,,,,,,,,,,,,,,,,,
,경기도 안산시 단원구 목내로122번길 46 ,37.3083913,126.780242,20200121,,저장 설비 ,작업자 부주의 ,과산화수소 ,누출 ,,0,0,,7722-84-1,액체,무색 ,무향 ,약산성 ,-11,141,,,,,0.0026,25,100,25,1,1.4425,25,-1.36,,,1.245,,34.01,강산화제 ,"열,스파크,화염,마찰,오염 ","의복,가연성물질,물,연료 ",무 ,무 ,무 ,무 ,무 ,유 ,,X,,,,,,,,,,,,,,,,,,,,,,,,,,,,,,,,,
,경기도 화성시 비봉면 비봉로71번길 8 ,37.2351553,126.872925,20191227,,혼합기 ,작업자 부주의 ,혼합물 ,폭발 ,,0,1,,,,,,,,,,,,,,,,,,,,,,,,,,,,,,,,,,,,X,,,,,,,,,,,,,,,,,,,,,,,,,,,,,,,,,
,경기도 파주시 문산읍 당동2로 15 ,37.8678835,126.783029,20191219,,공정 설비 ,작업자 부주의 ,톨루엔 ,누출 ,,0,1,,108-88-3,액체,무색,벤젠 냄새,,-94.9,110.6,4,,7.8,1,0.037,25,0.526,25,3.1,,,2.73,480,,0.56,25,92.14,고인화성 ,"열,스파크,화염,고열",,무 ,무 ,무 ,무 ,무 ,유 ,,X,,,,,,,,,,,,,,,,,,,,,,,,,,,,,,,,,
,경기도 시흥시 협력로 89 ,37.3383096,126.7025201,20190930,,저장설비 ,작업자 부주의 ," 황화나트륨, 무수",증기 흡입 ,,0,2,,1313-82-2,흡습성 결정 고체,흰색,독특한 냄새 ,염기성 ,,,,,,,6.04E-20,25,18.6,20,,1.856,,-3.5,,920,,,78.04,인화성 ,"열,스파크,화염,습기",물 ,무 ,무 ,무 ,무 ,무 ,유 ,,X,,,,,,,,,,,,,,,,,,,,,,,,,,,,,,,,,
,경기도 시흥시 협력로 99 ,37.3383096,126.7025201,20190927,,배관 ,작업자 부주의 ,톨루엔 ,누출 ,,0,0,,108-88-3,액체,무색,벤젠 냄새,,-94.9,110.6,4,,7.8,1,0.037,25,0.526,25,3.1,,,2.73,480,,0.56,25,92.14,고인화성 ,"열,스파크,화염,고열",,무 ,무 ,무 ,무 ,무 ,유 ,500,X,,,,,,,,,,,,,,,,,,,,,,,,,,,,,,,,,
,경기도 안산시 단원구 별망로 473 ,37.3033149,126.7779962,20190924,,배관 ,작업자 부주의 ,혼합물 ,누출 ,,0,0,,,,,,,,,,,,,,,,,,,,,,,,,,,,,,,,,,,,X,,,,,,,,,,,,,,,,,,,,,,,,,,,,,,,,,
,경기도 시흥시 공단1대로80번길 17 ,37.34353,126.702906,20190923,,저장설비 ,작업자 부주의 ,암모니아수 ,누출 ,,0,0,,1336-21-6,휘발성 액체 ,무색 ,자극적인 냄새 ,,-77,36,,,,,0.47,20,100,25,1.2,0.9,,-2.66,,,,,35.05,비인화성 ,열,"가연성 물질,환원성 물질,
금속",무 ,무 ,무 ,유 ,유 ,유 ,,X,,,,,,,,,,,,,,,,,,,,,,,,,,,,,,,,,
,"경기도 고양시 일산서구 구산로135번길 66-22, ㈜신용잉크 ",37.6936229,126.702906,20190822,,교반기 ,작업자 부주의 ,황화수소 ,누출 ,,0,0,,7783-06-04,기체,무색 ,썩은 달걀 냄새 ,약산성 ,-85,-60,,,46,4.3,20,25,0.4,20,1.19,2.1,,0.23,260,,0.0128,25,34.08,극인화성 ,"열,스파크,화염,고열",,무 ,무 ,무 ,무 ,무 ,유 ,,X,,,,,,,,,,,,,,,,,,,,,,,,,,,,,,,,,
,"경기도 고양시 일산서구 구산로135번길 66-22, ㈜신용잉크 ",37.6936229,126.702906,20190815,,이송 호스 ,작업자 부주의 ,염산(20%) ,누출 ,,0,0,,10361-95-2,고체 ,노란색 ,,,,,,,,,,,262,20,,2.15,,,,60,,,232.29,,"열,스파크,화염,고열","가연성물질,연료 ",유,유,유,무,무,무,40,X,,,,,,,,,,,,,,,,,,,,,,,,,,,,,,,,,
,"경기도 용인시 처인구 중부대로 1022-1, AJ토탈㈜ 처인냉장 ",37.2459613,127.1607005,20190813,,저장 설비 ,시설 결함,암모니아 ,누출 ,,0,0,,7664-41-7,기체 ,무색 ,자극적인 냄새 ,염기성 ,-78,-33.35,132,,15,33.6,9.99,26,54,20,0.59,0.7,-33,0.23,651,382.8,0.255,,17.03,극인화성 ,"열,스파크,화염,고열","물,강산화제,산,할로겐화물,중금속,분리그룹 ",무 ,무 ,무 ,무 ,무 ,유 ,,X,,,,,,,,,,,,,,,,,,,,,,,,,,,,,,,,,
,"경기도 화성시 삼성전자로1, 삼성전자㈜ 화성캠퍼스 ",37.2210153,127.0644218,20190811,,배관 ,시설 결함,디클로로실란,화재 ,,0,0,,4109-96-0,기체,무색,자극적인 냄새 ,,-122,8,-28,,99,4.1,1.61,20,,,3.48,,,,58,,,,101.01,극인화성 ,"열,스파크,화염,고열",물,무 ,무 ,무 ,무 ,무 ,유 ,,X,,,,,,,,,,,,,,,,,,,,,,,,,,,,,,,,,
,"경기도 시흥시 마유로144번길 41, 원경전자㈜ ",37.3302814,126.7259729,20190808,1:10,파이프 ,시설 결함,염산 ,누출 ,,0,0,,10361-95-2,고체 ,노란색 ,,,,,,,,,,,262,20,,2.15,,,,60,,,232.29,,"열,스파크,화염,고열","가연성물질,연료 ",유,유,유,무,무,무,,X,,,,,,,,,,,,,,,,,,,,,,,,,,,,,,,,,
,"경기도 시흥시 서해안로 186, 대정화금㈜ ",37.3302814,126.7259729,20190801,,저장 설비 ,시설 결함,폐혼합물 ,흄발생,,0,0,,,,,,,,,,,,,,,,,,,,,,,,,,,,,,,,,,,,X,,,,,,,,,,,,,,,,,,,,,,,,,,,,,,,,,
,"경기도 양주시 은현면 하패리 682, ㈜청호 ",37.8894683,127.0243725,20190723,,반응기 ,작업자 부주의 ,혼합물 ,연기 발생 ,,0,0,,,,,,,,,,,,,,,,,,,,,,,,,,,,,,,,,,,,X,,,,,,,,,,,,,,,,,,,,,,,,,,,,,,,,,
,"경기도 안산시 단원구 신원로 79, 기양금속공업㈜ ",37.3179743,126.7518423,20190627,,저장 설비 ,작업자 부주의 ,폐혼합물 ,폭발 ,,0,0,,,,,,,,,,,,,,,,,,,,,,,,,,,,,,,,,,,,X,,,,,,,,,,,,,,,,,,,,,,,,,,,,,,,,,
,"경기도 광주시 도척면 방도리 253, 신우케미칼 내 컨테이너 ",37.2847369,127.337022,20190620,,저장 설비 ,운송차량 사고,아조다이카보나마이드,화재 ,,0,0,,123-77-3,고체,주황색 ,,,,,,,,,2.48E-13,20,0.0035,20,,1.6,,-1.7,,,,,116.08,인화성 ,"열,스파크,화염,고열",,무 ,무 ,무 ,무 ,무 ,무 ,,X,,,,,,,,,,,,,,,,,,,,,,,,,,,,,,,,,
,"경기도 용인시 기흥구 탑실로35번길 25, 유한양행 중앙연구소  ",37.241282,127.1099853,20190524,,실험실 ,작업자 부주의 ,메틸아민 ,가스 발생 ,,0,0,,74-89-5,기체 ,무색 ,암모니아 냄새,염기성 ,-93,-6.3,-10,,4.9,20.7,3.099,20,102,,1.07,0.77,,-0.57,430,,0.236,25,31.0575,극인화성 ,"열,스파크,화염,고열",물,무 ,무 ,무 ,무 ,무 ,유 ,,X,,,,,,,,,,,,,,,,,,,,,,,,,,,,,,,,,
,"경기도 안산시 단원구 별망로677번길 36, ㈜한국에이스2공장 ",37.3062578,126.7952169,20190131,,저장 설비 ,작업자 부주의 ,수산화나트륨 ,이상 화학반응 ,,0,0,,1310-73-2,고체 ,흰색 ,무향 ,극염기성 ,318,1390,,,,,,,109,20,,2.13,20,-3.88,,,4,350,40,비인화성 ,열,"가연성 물질,환원성 물질,
금속",무 ,무 ,무 ,유 ,유 ,유 ,,X,,,,,,,,,,,,,,,,,,,,,,,,,,,,,,,,,
㈜한국포장,경기도 동두천시 삼육사로692번길 246-58(상패동 760)(주)한국포장 ,37.8996059,127.0229556,20181219,,저장 설비 ,작업자 부주의 ,초산 에틸(아세트산 에틸),화재 ,"종이 원지, 판지, 종이상자 도매업",0,0,,141-78-6,액체 ,무색,달콤한 냄새,,-84,77,-4,,11.5,2.2,0.12,25,6.4,25,3,0.9,,0.73,427,,0.44,25,88.11,고인화성 ,"열,스파크,화염,고열",,유 ,유 ,유 ,무 ,무 ,무 ,,X,,,,,,,,,,,,,,,,,,,,,,,,,,,,,28,,"종이 원지, 판지, 종이상자",1,
(주)한일화학,경기도 시흥시 공단1대로 80번길 17(정왕동 1252-9)(주)한일화학 ,37.3435851,126.7122239,20181203,,저장 설비 ,시설 결함,암모니아 ,누출 ,기타 기초 무기 화학물질 제조업,0,0,,7664-41-7,기체 ,무색 ,자극적인 냄새 ,염기성 ,-78,-33.35,132,,15,33.6,9.99,26,54,20,0.59,0.7,-33,0.23,651,382.8,0.255,,17.03,극인화성 ,"열,스파크,화염,고열","물,강산화제,산,할로겐화물,중금속,분리그룹 ",무 ,무 ,무 ,무 ,무 ,유 ,,X,,,,,,,,,,,,,,,,,,,,,,,,,,,,,114,,기타 기초 무기 화학물질,3,
서울우유,경기도 양주시 고덕로139번길 360(덕계동 152)서울특별시우유 양주공장 ,37.820919,127.0596516,20181129,,밸브 ,시설 결함,암모니아 ,누출 ,식음료 제조업,0,0,,7664-41-7,기체 ,무색 ,자극적인 냄새 ,염기성 ,-78,-33.35,132,,15,33.6,9.99,26,54,20,0.59,0.7,-33,0.23,651,382.8,0.255,,17.03,극인화성 ,"열,스파크,화염,고열","물,강산화제,산,할로겐화물,중금속,분리그룹 ",무 ,무 ,무 ,무 ,무 ,유 ,,X,,,,,,,,,,,,,,,,,,,,,,,,,,,,,379,,식음료,2,
,경기도 시흥시 마유로118번길 87(정왕동 1377-12)(주)동성금형열처리  ,37.3259487,126.7284728,20181113,,공정 설비 ,작업자 부주의 ,암모니아 ,누출 ,,0,0,,7664-41-7,기체 ,무색 ,자극적인 냄새 ,염기성 ,-78,-33.35,132,,15,33.6,9.99,26,54,20,0.59,0.7,-33,0.23,651,382.8,0.255,,17.03,극인화성 ,"열,스파크,화염,고열","물,강산화제,산,할로겐화물,중금속,분리그룹 ",무 ,무 ,무 ,무 ,무 ,유 ,50,X,,,,,,,,,,,,,,,,,,,,,,,,,,,,,,,,,
,"경기도 포천시 신북면 청신로1526번길 19, 포천민자발전㈜ ",37.9489659,127.1700455,20181012,,밸브 ,작업자 부주의 ,황산 ,누출 ,,0,0,,7664-93-9,액체 ,무색 ,무향 ,강산성 ,10.4~10.94,337,,,,,0.0059,20,,,1.81,1.8,,-2.2,,340,21,,98.079,,"열,스파크,화염 ","가연성물질,금속,물",무 ,무 ,무 ,무 ,무 ,유 ,,X,,,,,,,,,,,,,,,,,,,,,,,,,,,,,,,,,
,경기도 용인시 기흥구 삼성로 1(농서동 161)삼성전자(주) 기흥사업장 ,37.2288615,127.0801946,20180904,,배선 ,작업자 부주의 ,이산화탄소 가스 ,누출 ,,0,0,,124-38-9,기체,무색,무향 ,약산성 ,-56.558,-78.464,,,,,63.55,25,,,1.53,1.977,,0.83,,,,,44.01,,열,,,,,,,,,X,,,,,,,,,,,,,,,,,,,,,,,,,,,,,,,,,
,경기도 용인시 처인구 모현읍 포은대로 892(오산리 260)희창냉장 ,37.3305111,127.1462931,20180724,,밸브 ,시설 결함,암모니아 용액 ,누출 ,,0,0,,1336-21-6,휘발성 액체 ,무색 ,자극적인 냄새 ,,-77,36,,,,,0.47,20,100,25,1.2,0.9,,-2.66,,,,,35.05,비인화성 ,열,"가연성 물질,환원성 물질,
금속",무 ,무 ,무 ,유 ,유 ,유 ,,X,,,,,,,,,,,,,,,,,,,,,,,,,,,,,,,,,
화성 씨제이,경기도 안산시 단원구 별망로 269번길 63(성곡동 631-2) 화성씨제이 ,37.3145518,126.7580675,20180720,,도로 ,시설 결함,폐혼합물 ,누출 ,금속류 원료 재생업,0,0,,,,,,,,,,,,,,,,,,,,,,,,,,,,,,,,,,,2721.55,X,,,,,,,,,,,,,,,,,,,,,,,,,,,,,17,,금속류 원료,1,
,경기도 안산시 단원구 진흥로 102번길 66 ,37.3136367,126.7485906,20180622,,제조 설비 ,시설 결함,염산(35%) ,누출 ,,0,0,,10361-95-2,고체 ,노란색 ,,,,,,,,,,,262,20,,2.15,,,,60,,,232.29,,"열,스파크,화염,고열","가연성물질,연료 ",유,유,유,무,무,무,907.185,X,,,,,,,,,,,,,,,,,,,,,,,,,,,,,,,,,
,경기도 부천시 신흥로 489번길 32(오정동 428-94)남도철강 인근도로 ,37.5274112,126.7763235,20180615,,저장 설비 ,시설 결함," 1,2-디아미노에탄(에틸렌디아민)",누출 ,,0,0,,107-15-3,흡습성 액체,무색,암모니아 냄새,강염기성 ,8.5,116~117,34,0.91,16.6,2.5,0.016,,,,2.07,0.898,,-2.04,385,,0.0154,,60.1,인화성 ,"열,스파크,화염 ",,무 ,무 ,무 ,무 ,무 ,유 ,3,X,,,,,,,,,,,,,,,,,,,,,,,,,,,,,,,,,
,경기도 광주시 순암로 536-7(삼동 288-1)효성 냉동창고 ,37.4123354,127.1970081,20180523,,밸브 ,시설 결함,암모니아 ,누출 ,,0,0,,7664-41-7,기체 ,무색 ,자극적인 냄새 ,염기성 ,-78,-33.35,132,,15,33.6,9.99,26,54,20,0.59,0.7,-33,0.23,651,382.8,0.255,,17.03,극인화성 ,"열,스파크,화염,고열","물,강산화제,산,할로겐화물,중금속,분리그룹 ",무 ,무 ,무 ,무 ,무 ,유 ,0.108,X,,,,,,,,,,,,,,,,,,,,,,,,,,,,,,,,,
,경기도 포천시 군내면 용두로 71(용정리 6-19) ㈜디에스테크  ,37.8715669,127.2215978,20180514,,저장 설비 ,작업자 부주의 ,노말-부틸아크릴레이트,누출 ,,0,0,,141-32-2 ,액체 ,무색 ,과일향 ,,-64.6,145,36,,1.3,9.9,0.0072,25,0.14,20,4.42,0.8898,20,2.36,267,,,,128.17,인화성 ,"열,스파크,화염,고열",,무 ,무 ,무 ,무 ,무 ,유 ,1000,X,,,,,,,,,,,,,,,,,,,,,,,,,,,,,,,,,
,"경기도 화성시 우정읍 주곡리 370-2, 조암IC(평택방면)  ",37.1188372,126.8182896,20180514,,도로 ,운송차량 사고,수용성 페인트 ,누출 ,,0,0,,,,,,,,,,,,,,,,,,,,,,,,,,,,,,,,,,,1500,X,,,,,,,,,,,,,,,,,,,,,,,,,,,,,,,,,
,경기도 시흥시 공단1대로 321번길 36(정왕동 1290-9) ㈜신덕전자  ,37.3341701,126.7382772,20180401,,저장 설비 ,시설 결함,혼합물 ,흄발생 ,,0,0,,,,,,,,,,,,,,,,,,,,,,,,,,,,,,,,,,,,X,,,,,,,,,,,,,,,,,,,,,,,,,,,,,,,,,
,경기도 안성시 미양면 농공단지길 24(구수리 264-4)롯데칠성음료(주) 안성2공장  ,36.9634665,127.2515627,20180319,,밸브 ,작업자 부주의 ,암모니아 ,누출 ,,0,0,,7664-41-7,기체 ,무색 ,자극적인 냄새 ,염기성 ,-78,-33.35,132,,15,33.6,9.99,26,54,20,0.59,0.7,-33,0.23,651,382.8,0.255,,17.03,극인화성 ,"열,스파크,화염,고열","물,강산화제,산,할로겐화물,중금속,분리그룹 ",무 ,무 ,무 ,무 ,무 ,유 ,,X,,,,,,,,,,,,,,,,,,,,,,,,,,,,,,,,,
,경기도 안산시 단원구 목내로 122번길 43(목내동 393-2)(주)엠엔씨텍 ,37.3147239,126.7477219,20180316,,폐 저장 설비 ,작업자 부주의 ,폐혼합물 ,흄발생 ,,0,0,,,,,,,,,,,,,,,,,,,,,,,,,,,,,,,,,,,,X,,,,,,,,,,,,,,,,,,,,,,,,,,,,,,,,,
,경기도 안성시 대덕면 서동대로 4726(내리 72-1) 중앙대학교 안성캠퍼스 생명공과대학원 1층 연구실  ,37.005398,127.2303724,20171229,,실험실 ,작업자 부주의 ,과산화수소 ,화상 ,,0,2,,7722-84-1,액체,무색 ,무향 ,약산성 ,-11,141,,,,,0.0026,25,100,25,1,1.4425,25,-1.36,,,1.245,,34.01,강산화제 ,"열,스파크,화염,마찰,오염 ","의복,가연성물질,물,연료 ",무 ,무 ,무 ,무 ,무 ,유 ,,X,,,,,,,,,,,,,,,,,,,,,,,,,,,,,,,,,
,경기도 김포시 대곶면 대곶남로 53(대벽리 690-58)동성사무기기 부근  ,37.605056,126.57689,20171207,,도로 ,운송차량 사고,자일렌(크실렌),유출 ,,0,0,,1330-20-7,액체,무색,달콤한 냄새,,13,138,,,,,0.012,25,,,3.7,0.864,,3.15,,,,,106.16,,"열,스파크,화염,고열",,무,무,무,무,무,유,100,X,,,,,,,,,,,,,,,,,,,,,,,,,,,,,,,,,
,경기도 수원시 장안구 이목동 349-21 오리뜰 삼거리 인근 도로 ,37.3064583,126.9816736,20171103,,도로 ,운송차량 사고,염산(35%) ,유출 ,,0,0,,10361-95-2,고체 ,노란색 ,,,,,,,,,,,262,20,,2.15,,,,60,,,232.29,,"열,스파크,화염,고열","가연성물질,연료 ",유,유,유,무,무,무,15,X,,,,,,,,,,,,,,,,,,,,,,,,,,,,,,,,,
,경기도 평택시 포승읍 포승장안로 458(홍원리 219-10))비케이로지텍  ,37.0168529,126.8730866,20171023,,도로 ,작업자 부주의 ,염화티오닐,유출 ,,0,0,,7719-09-07,발연 액체 ,무색,자극적인 냄새 ,,-104.5,76,,,,,0.13,20,,,4.1,1.64,,0.68,,,0.8,,118.97,,"열,스파크,화염 ","가연성물질,금속,물",무 ,무 ,무 ,무 ,무 ,유 ,10,X,,,,,,,,,,,,,,,,,,,,,,,,,,,,,,,,,
,"경기도 용인시 기흥구 신갈동 308-1, 신갈분기점(부산에서 서울특별시방향) ",37.2904159,127.1024869,20171011,,도로 ,운송차량 사고,아산화질소,유출 ,,0,0,,10024-97-2,기체 ,무색 ,특이한 냄새,,-90.8,-88.5,,,,,50.83,20,0.15,15,1.53,1.23,-33,0.35,,,0.0145,25,44,산화제 ,열,"의복,가연성물질,연료,환원성물질 ",유 ,무 ,유 ,무 ,무 ,무 ,,X,,,,,,,,,,,,,,,,,,,,,,,,,,,,,,,,,
㈜인터플렉스,경기도 ,37.3166933,126.7664408,20170927,,제조 설비 ,작업자 부주의 ,염화수소 ,가스 발생 ,인쇄회로기판용 적층판 제조업,0,0,,7647-01-0,기체,무색,자극적인 냄새 ,,-114,-85,,,,,0.047,25,67,30,,,,0.25,,,,,36.4609,,열,물,무,무,무,무,무,유 ,,X,,,,,,,,,,,,,,,,,,,,,,,,,,,,,353,황산,인쇄회로기판용 적층판,1,
,경기도 안산시 단원구 강촌로 149(성곡동 600-1) ,37.3165428,126.7658804,20170927,,반응기 ,작업자 부주의 ,폐혼합물 ,폭발 ,,0,2,,,,,,,,,,,,,,,,,,,,,,,,,,,,,,,,,,,,X,,,,,,,,,,,,,,,,,,,,,,,,,,,,,,,,,
,경기도 안산시 단원구 광덕4로 250(고잔동 729-7) ,37.3143281,126.8403853,20170926,,연구실,작업자 부주의 ,혼합물 ,누출 ,,0,0,,,,,,,,,,,,,,,,,,,,,,,,,,,,,,,,,,,,X,,,,,,,,,,,,,,,,,,,,,,,,,,,,,,,,,
,경기도 이천시 마장면 이장로 226(장암리 587-6) ,37.2716165,127.3866378,20170829,,저장 설비 ,작업자 부주의 ,톨루엔 ,유출 ,,0,0,,108-88-3,액체,무색,벤젠 냄새,,-94.9,110.6,4,,7.8,1,0.037,25,0.526,25,3.1,,,2.73,480,,0.56,25,92.14,고인화성 ,"열,스파크,화염,고열",,무 ,무 ,무 ,무 ,무 ,유 ,,X,,,,,,,,,,,,,,,,,,,,,,,,,,,,,,,,,
새한금속,경기도 안산시 단원구 동산로 27번길 96(원시동 769-2)㈜새한금속  ,37.3204782,126.7903836,20170807,,배관,시설 결함,질산(68%),연기 발생 ,도금업,0,0,,7697-37-2,액체,무색,자극적인 냄새 ,,-41.6,121,,,,,0.0012,20,50,20,2.2,1.5128,,-0.21,,,0.746,25,63.0119,불연성,"열,스파크,화염,고열","가연성물질,금속,물 ",무,무,무,유,유,유 ,,X,,,,,,,,,,,,,,,,,,,,,,,,,,,,,20,,,1,
동양케미칼,경기도 시흥시 정왕동 고잔TG~정왕IC 인근도로  ,37.3499114,126.9368783,20170801,,도로 ,운송차량 사고,질산(68%),유출 ,그 외 기타 플라스틱 제품 제조업,0,0,,7697-37-2,액체,무색,자극적인 냄새 ,,-41.6,121,,,,,0.0012,20,50,20,2.2,1.5128,,-0.21,,,0.746,25,63.0119,불연성,"열,스파크,화염,고열","가연성물질,금속,물 ",무,무,무,유,유,유 ,3,X,,,,,,,,,,,,,,,,,,,,,,,,,,,,,6,,"기타 화학 물질,기타 화학제품",1,
,경기도 시흥시 공단 1대로 80번길 17(정왕3동 1252-9 시화공단 1다 408)(주)한일화학 ,37.3435851,126.7122239,20170719,,배관 ,시설 결함,암모니아 ,누출 ,,0,0,,7664-41-7,기체 ,무색 ,자극적인 냄새 ,염기성 ,-78,-33.35,132,,15,33.6,9.99,26,54,20,0.59,0.7,-33,0.23,651,382.8,0.255,,17.03,극인화성 ,"열,스파크,화염,고열","물,강산화제,산,할로겐화물,중금속,분리그룹 ",무 ,무 ,무 ,무 ,무 ,유 ,,X,,,,,,,,,,,,,,,,,,,,,,,,,,,,,,,,,
,"경기도 안성시 미양면 협동단지길 44,(보체리 325-30) ",36.9621483,127.2423953,20170710,,밸브 ,시설 결함,질산(68%),유출 ,,0,0,,7697-37-2,액체,무색,자극적인 냄새 ,,-41.6,121,,,,,0.0012,20,50,20,2.2,1.5128,,-0.21,,,0.746,25,63.0119,불연성,"열,스파크,화염,고열","가연성물질,금속,물 ",무,무,무,유,유,유 ,1814.37,X,,,,,,,,,,,,,,,,,,,,,,,,,,,,,,,,,
,경기도 용인시 처인구 양지면 한터로 707(정수리고개 광주광역시방향) ,37.2623034,127.2811798,20170502,,도로 ,운송차량 사고,톨루엔 ,유출 ,,0,0,,108-88-3,액체,무색,벤젠 냄새,,-94.9,110.6,4,,7.8,1,0.037,25,0.526,25,3.1,,,2.73,480,,0.56,25,92.14,고인화성 ,"열,스파크,화염,고열",,무 ,무 ,무 ,무 ,무 ,유 ,850,X,,,,,,,,,,,,,,,,,,,,,,,,,,,,,,,,,
CJ제일제당 ,경기도 ,37.2919854,126.8905568,20170423,,밸브 ,작업자 부주의 ,염산 ,유출 ,설탕 제조업,0,0,,10361-95-2,고체 ,노란색 ,,,,,,,,,,,262,20,,2.15,,,,60,,,232.29,,"열,스파크,화염,고열","가연성물질,연료 ",유,유,유,무,무,무,,X,,,,,,,,,,,,,,,,,,,,,,,,,,,,,,,설탕 ,1,
,"경기도 안산시 단원구 신원로 373(목내동 398-8), 유트로닉스 1공장 ",37.3074136,126.7770999,20170303,,저장 설비 ,작업자 부주의 ,염산(35%),유출 ,,0,0,,10361-95-2,고체 ,노란색 ,,,,,,,,,,,262,20,,2.15,,,,60,,,232.29,,"열,스파크,화염,고열","가연성물질,연료 ",유,유,유,무,무,무,100,X,,,,,,,,,,,,,,,,,,,,,,,,,,,,,,,,,
동원물류 ,경기도 ,37.2304672,127.1151601,20170302,,배관 ,시설 결함,암모니아 ,누출 ,"화물운송 중개, 대리 및 관련 서비스업",0,0,,7664-41-7,기체 ,무색 ,자극적인 냄새 ,염기성 ,-78,-33.35,132,,15,33.6,9.99,26,54,20,0.59,0.7,-33,0.23,651,382.8,0.255,,17.03,극인화성 ,"열,스파크,화염,고열","물,강산화제,산,할로겐화물,중금속,분리그룹 ",무 ,무 ,무 ,무 ,무 ,유 ,,X,,,,,,,,,,,,,,,,,,,,,,,,,,,,,,,,,
,경기도 남양주시 내곡IC(임송삼거리 방향 도로상) ,37.6714456,127.1525222,20170202,,저장 설비 ,운송차량 사고,경유 ,유출 ,,0,0,,64742-29-6,액체 ,,,,,182~374,,,,,0.0039,40,,,,0.84,15,4.95,,,,,,비인화성,"열,스파크,화염 ","가연성 물질, 환원성 물질",유 ,유 ,유 ,유 ,유 ,무 ,,X,,,,,,,,,,,,,,,,,,,,,,,,,,,,,,,,,
국민양초 ,경기도 포천시 내촌면 음현리 460-2 국민양초 ,37.7374906,127.2286346,20170123,,사업장 ,시설 결함,,화재 ,그 외 기타 분류 안된 제품 제조업,0,0,,,,,,,,,,,,,,,,,,,,,,,,,,,,,,,,,,,,X,,,,,,,,,,,,,,,,,,,,,,,,,,,,,,,,,
,충청남도,36.557229,126.779757,20070526,12:36,밸브 ,시설 결함,에탄,폭발 ,,0,7,,74-84-0 ,액화 가스,무색,무향 ,,-183,-88,,자료없음,12.5,3,41.4,25,0.00602,25,1.05,,,1.81,472,,0.00634,-78.5,30.08,인화성,"열,스파크,화염,고열",,유 ,유 ,유 ,무 ,무 ,무 ,,X,,,,,,,,,,,,,,,,,,,,,,,,,,,,,,,,,
,,,,20070605,10:45,사업장 ,작업자 부주의 ,톨루엔 ,정전기 착화 ,,0,0,,108-88-3,액체,무색,벤젠 냄새,,-94.9,110.6,4,,7.8,1,0.037,25,0.526,25,3.1,,,2.73,480,,0.56,25,92.14,고인화성 ,"열,스파크,화염,고열",,무 ,무 ,무 ,무 ,무 ,유 ,,X,,,,,,,,,,,,,,,,,,,,,,,,,,,,,,,,,
,경기도 ,37.567167,127.190292,20080809,,공정 설비 ,시설 관리 미흡 ,톨루엔 ,화재 ,,6,2,,108-88-3,액체,무색,벤젠 냄새,,-94.9,110.6,4,,7.8,1,0.037,25,0.526,25,3.1,,,2.73,480,,0.56,25,92.14,고인화성 ,"열,스파크,화염,고열",,무 ,무 ,무 ,무 ,무 ,유 ,,X,,,,,,,,,,,,,,,,,,,,,,,,,,,,,,,,,
,경기도 ,37.567167,127.190292,20070817,11:56,배합기 ,시설 관리 미흡 ,혼합물 ,폭발 ,,3,4,,,,,,,,,,,,,,,,,,,,,,,,,,,,,,,,,,,,X,,,,,,,,,,,,,,,,,,,,,,,,,,,,,,,,,
,경기도 ,37.567167,127.190292,20070817,11:56,배합기 ,시설 관리 미흡 ,혼합물 ,폭발 ,,2,5,,,,,,,,,,,,,,,,,,,,,,,,,,,,,,,,,,,,X,,,,,,,,,,,,,,,,,,,,,,,,,,,,,,,,,
,전라북도,35.716705,127.144185,20070825,4:10,반응기 ,시설 관리 미흡 ,톨루엔 ,폭발 ,,0,4,,108-88-3,액체,무색,벤젠 냄새,,-94.9,110.6,4,,7.8,1,0.037,25,0.526,25,3.1,,,2.73,480,,0.56,25,92.14,고인화성 ,"열,스파크,화염,고열",,무 ,무 ,무 ,무 ,무 ,유 ,,X,,,,,,,,,,,,,,,,,,,,,,,,,,,,,,,,,
,경상남도 ,35.259787,128.664734,20070911,13:25,저장 설비 ,시설 관리 미흡 ,톨루엔 ,폭발 ,,0,2,,108-88-3,액체,무색,벤젠 냄새,,-94.9,110.6,4,,7.8,1,0.037,25,0.526,25,3.1,,,2.73,480,,0.56,25,92.14,고인화성 ,"열,스파크,화염,고열",,무 ,무 ,무 ,무 ,무 ,유 ,,X,,,,,,,,,,,,,,,,,,,,,,,,,,,,,,,,,
,,,,20070914,13:40,밸브 ,시설 결함 ,삼불화붕소,누출 ,,0,0,,7637-07-02,기체 ,무색,자극적인 냄새 ,,-127,-101,,,,,48.16,-13,,,2.4,3.07666,,0.22,,,,,67.8,,열,물,무 ,무 ,무 ,무 ,무 ,유 ,10,X,,,,,,,,,,,,,,,,,,,,,,,,,,,,,,,,,
,경상남도 ,35.259787,128.664734,200710,,사업장 ,시설 관리 미흡 ,마그네슘 분말 ,폭발 ,,2,2,,7439-95-4,분말 고체 ,회색 ,,,651,1100,,,,,5.58E-12,25,32.5,25,,1.7,,-0.57,473,,,,24.3,,"열,스파크,화염,고열","공기,물,습기 ",무 ,무 ,무 ,무 ,무 ,유 ,,X,,,,,,,,,,,,,,,,,,,,,,,,,,,,,,,,,
,전라남도 ,34.8194,126.893113,20071030,10:55,저장 설비 ,시설 관리 미흡 ,질소 ,파열 ,,2,0,,7727-37-9,기체,무색 ,무향 ,,-210,-196,,,,,1,,,,0.97,0.808,,0.67,,,,,28,비인화성 ,열 ,,무 ,무 ,무 ,무 ,무 ,무 ,,X,,,,,,,,,,,,,,,,,,,,,,,,,,,,,,,,,
,,,,20071123,14:35,공정 설비 ,시설 관리 미흡 ,혼합물 ,화재 ,,1,0,,,,,,,,,,,,,,,,,,,,,,,,,,,,,,,,,,,,X,,,,,,,,,,,,,,,,,,,,,,,,,,,,,,,,,
,전라남도 ,34.8194,126.893113,20071123,14:35,저장 설비 ,시설 관리 미흡 ,벤젠,화재 ,,1,0,,71-43-2,액체 ,무색 ,특유의 냄새 ,,5.5,80,-11,,8,1.2,0.098,20,,,2.8,0.877,20,2.13,498,,0.604,25,78.1134,고인화성 ,"열,스파크,화염,고열","산화제,할로겐물질",무 ,무 ,무 ,무 ,무 ,유 ,,X,,,,,,,,,,,,,,,,,,,,,,,,,,,,,,,,,
,경기도 ,37.567167,127.190292,20071227,12:49,저장 설비 ,시설 관리 미흡 ,테트라히드로퓨란,폭발 ,,0,1,,10170-68-0,분말 고체 ,자주색,,,,,,,,,,,,,,,,,,143,,,374.67,인화성 ,"열,스파크,화염,고열,마찰,천공,선반,절삭",,유 ,무,유 ,무 ,무 ,무 ,,X,,,,,,,,,,,,,,,,,,,,,,,,,,,,,,,,,
,경상북도,36.248647,128.664734,20080301,3:05,반응기 ,시설 관리 미흡 ,페놀수지,폭발 ,,2,14,,9003-35-4,고체 ,,아몬드 냄새 ,,,,,,,,,,,,4.6,1.25,,,,,,,134.133,비인화성 ,"열,스파크,화염 ","가연성물질,환연성물질 ",무 ,무 ,무 ,유 ,유 ,유 ,,X,,,,,,,,,,,,,,,,,,,,,,,,,,,,,,,,,
,경상북도,36.248647,128.664734,20080301,3:10,반응기 ,시설 관리 미흡 ,페놀수지,화재 ,,2,14,,9003-35-4,고체 ,빨간색,아몬드 냄새 ,,,,,,,,,,,,4.6,1.25,,,,,,,134.133,비인화성 ,"열,스파크,화염 ","가연성물질,환연성물질 ",무 ,무 ,무 ,유 ,유 ,유 ,,X,,,,,,,,,,,,,,,,,,,,,,,,,,,,,,,,,
,,,,20080304,9:18,제조 설비 ,시설 결함 ,톨루엔 ,폭발 ,,1,0,,108-88-3,액체,무색,벤젠 냄새,,-94.9,110.6,4,,7.8,1,0.037,25,0.526,25,3.1,,,2.73,480,,0.56,25,92.14,고인화성 ,"열,스파크,화염,고열",,무 ,무 ,무 ,무 ,무 ,유 ,,X,,,,,,,,,,,,,,,,,,,,,,,,,,,,,,,,,
,충청남도,36.557229,126.779757,20080430,19:10,배관 ,작업자 부주의 ,에틸렌,화재 ,,0,2,,74-85-1,기체,무색,달콤한 냄새,,-169.2,-104,-136,,36,2.7,79.9,15,0.0131,25,0.98,,,1.13,490,,0.01,,28.05,인화성,"열,스파크,화염,고열",,유,유,유,무 ,무 ,무,,X,,,,,,,,,,,,,,,,,,,,,,,,,,,,,,,,,
,전라남도 ,34.8194,126.893113,20080503,16:32,밸브 ,시설 관리 미흡 ,염화수소,누출 ,,0,2,,7647-01-0,기체,무색,자극적인 냄새 ,,-114,-85,,,,,0.047,25,67,30,,,,0.25,,,,,36.4609,,열,물,무,무,무,무,무,유 ,,X,,,,,,,,,,,,,,,,,,,,,,,,,,,,,,,,,
여천NCC(주),전라남도 ,34.8194,126.893113,20080514,22:00,사업장 ,시설 관리 미흡 ,에틸렌,화재 ,석유화학계 기초 화학물질 제조업,0,2,,74-85-1,기체,무색,달콤한 냄새,,-169.2,-104,-136,,36,2.7,79.9,15,0.0131,25,0.98,,,1.13,490,,0.01,,28.05,인화성,"열,스파크,화염,고열",,유,유,유,무 ,무 ,무,,X,,,,,,,,,,,,,,,,,,,,,,,,,,,,,162,,석유화학계 기초 화학 물질,3,
숭실대학교 ,서울특별시,37.4967694,126.958415,20080516,18:27,실험실 ,작업자 부주의 ,톨루엔,폭발 ,,0,2,,108-88-3,액체,무색,벤젠 냄새,,-94.9,110.6,4,,7.8,1,0.037,25,0.526,25,3.1,,,2.73,480,,0.56,25,92.14,고인화성 ,"열,스파크,화염,고열",,무 ,무 ,무 ,무 ,무 ,유 ,,X,,,,,,,,,,,,,,,,,,,,,,,,,,,,,,,,1,
,경상남도 ,35.259787,128.664734,20080601,,밸브 ,시설 관리 미흡 ,불화수소,비산 ,,1,0,,7664-39-3,기체 ,무색 ,자극적인 냄새 ,산성 ,-83.53,19.51,,,,,1.2,25,,,0.95,1,,,,,0.256,0,20.01,불연성,열,"물,
분리 그룹",무 ,무 ,무 ,무 ,무 ,유 ,,X,,,,,,,,,,,,,,,,,,,,,,,,,,,,,,,,,
창신화학(주),전라남도 ,34.8252381,127.6813647,20080622,7:50,밸브 ,시설 결함 ,이산화탄소,누출 ,,0,0,,124-38-9,,,,,,,,,,,,,,,,,,,,,,,,,,,,,,,,,27215.5,X,,,,,,,,,,,,,,,,,,,,,,,,,,,,,,,,,
,전라남도 ,34.8252381,127.6813647,20080623,22:50,도로 ,작업자 부주의 ,암모니아 ,누출 ,,0,0,,7664-41-7,기체 ,무색 ,자극적인 냄새 ,염기성 ,-78,-33.35,132,,15,33.6,9.99,26,54,20,0.59,0.7,-33,0.23,651,382.8,0.255,,17.03,극인화성 ,"열,스파크,화염,고열","물,강산화제,산,할로겐화물,중금속,분리그룹 ",무 ,무 ,무 ,무 ,무 ,유 ,,X,,,,,,,,,,,,,,,,,,,,,,,,,,,,,,,,,
,전라남도 ,34.8252381,127.6813647,20080626,15:14,추출기 ,작업자 부주의 ,에탄올 ,폭발 ,,0,4,,64-17-5,액체,무색,"와인,위스키 냄새",중성 ,-114.1,78.5,13,,27.7,3.1,0.057,20,78.9,20,1.6,0.79,,-0.32,400,,1.074,,46.0684,,"열,스파크,화염,고열",,무 ,무 ,무 ,무 ,무 ,유 ,,X,,,,,,,,,,,,,,,,,,,,,,,,,,,,,,,,,
,,,,20080630,4:16,도로 ,운송차량사고 ,혼합물 ,화재 ,,0,1,,,,,,,,,,,,,,,,,,,,,,,,,,,,,,,,,,,,X,,,,,,,,,,,,,,,,,,,,,,,,,,,,,,,,,
,서울특별시,37.540705,126.956764,20080723,19:44,실험실 ,작업자 부주의 ,메탄올 ,화재 ,,0,0,,67-56-1,액체 ,무색 ,톡 쏘는 냄새 ,극염기성 ,-97.6,65,11.11,,50,6,0.17,25,100,25,1.11,0.79,,-0.77,440,,0.544,25,32.04,고인화성 ,"열,스파크,화염,고열",강산화제,무 ,무 ,무 ,무 ,무 ,유,,X,,,,,,,,,,,,,,,,,,,,,,,,,,,,,,,,,
,인천광역시,37.469221,126.573234,200808,,,시설 관리 미흡 ,합금 분말 ,폭발 ,,0,4,,,,,,,,,,,,,,,,,,,,,,,,,,,,,,,,,,,,X,,,,,,,,,,,,,,,,,,,,,,,,,,,,,,,,,
,인천광역시,37.469221,126.573234,20080824,10:11,제조 설비 ,시설 관리 미흡 ,금속분 ,화재 ,,0,4,,,,,,,,,,,,,,,,,,,,,,,,,,,,,,,,,,,,X,,,,,,,,,,,,,,,,,,,,,,,,,,,,,,,,,
,경기도 ,37.567167,127.190292,20080902,14:20,제조 설비 ,시설 관리 미흡 ,혼합물 ,화재 ,,0,3,,,,,,,,,,,,,,,,,,,,,,,,,,,,,,,,,,,,X,,,,,,,,,,,,,,,,,,,,,,,,,,,,,,,,,
,경기도 ,37.567167,127.190292,20080909,21:34,저장 설비 ,시설 관리 미흡 ,휘발유 ,화재 ,,1,0,,8006-61-9,액체 ,무색 ,특이한 냄새,,-90.5~-95.4,32~210,,,7.6,1.2,0.65,,,,3.5,0.75,,4.05,,,,,,고인화성 ,"열,스파크,화염,고열",,유 ,유 ,유 ,무 ,무 ,무 ,,X,,,,,,,,,,,,,,,,,,,,,,,,,,,,,,,,,
,경기도 ,37.567167,127.190292,20080923,15:16,계곡 ,시설 결함 ,경유 ,유출 ,,0,1,,64742-29-6,액체 ,,,,,182~374,,,,,0.0039,40,,,,0.84,15,4.95,,,,,,비인화성,"열,스파크,화염 ","가연성 물질, 환원성 물질",유 ,유 ,유 ,유 ,유 ,무 ,,X,,,,,,,,,,,,,,,,,,,,,,,,,,,,,,,,,
,울산광역시,35.519301,129.239078,20081106,17:02,저장 설비 ,작업자 부주의 ,에틸렌글리콜,화재 ,,0,0,,107-21-1,점성 액체 ,무색,무향 ,중성 ,-13,198,111,,15.3,3.2,6.91E-05,20,100,17.5,2.1,1.1,,-1.36,398,,16.1,25,62.07,,"열,스파크,화염,고열","가연성 물질, 환원성 물질
강산, 강산화제",유 ,유 ,유 ,유 ,유 ,무 ,,X,,,,,,,,,,,,,,,,,,,,,,,,,,,,,,,,,
,경기도 ,37.567167,127.190292,20090801,12:00,사업장 ,시설 관리 미흡 ,황화수소,누출 ,,1,1,,7783-06-04,기체,무색 ,썩은 달걀 냄새 ,약산성 ,-85,-60,,,46,4.3,20,25,0.4,20,1.19,2.1,,0.23,260,,0.0128,25,34.08,극인화성 ,"열,스파크,화염,고열",,무 ,무 ,무 ,무 ,무 ,유 ,,X,,,,,,,,,,,,,,,,,,,,,,,,,,,,,,,,,
